EESchema Schematic File Version 2
LIBS:shim1
LIBS:shim1_pcb-rescue
LIBS:power
LIBS:device
LIBS:transistors
LIBS:conn
LIBS:linear
LIBS:regul
LIBS:74xx
LIBS:cmos4000
LIBS:adc-dac
LIBS:memory
LIBS:xilinx
LIBS:special
LIBS:microcontrollers
LIBS:dsp
LIBS:microchip
LIBS:analog_switches
LIBS:motorola
LIBS:texas
LIBS:intel
LIBS:audio
LIBS:interface
LIBS:digital-audio
LIBS:philips
LIBS:display
LIBS:cypress
LIBS:siliconi
LIBS:opto
LIBS:atmel
LIBS:contrib
LIBS:valves
LIBS:shim1_pcb-cache
EELAYER 25 0
EELAYER END
$Descr A3 16535 11693
encoding utf-8
Sheet 5 5
Title ""
Date ""
Rev ""
Comp ""
Comment1 ""
Comment2 ""
Comment3 ""
Comment4 ""
$EndDescr
Text GLabel 1700 4050 0    50   Input ~ 0
epuck_vccbatt
Text GLabel 1700 4250 0    50   Input ~ 0
epuck_gndbatt
Text Notes 600  4500 0    60   ~ 0
Switched epuck LiIon battery
Text Notes 850  6500 0    60   ~ 0
Epuck LDO enable\nFit only one resistor to enable\nwhen epuck switch turned on\nor when xu4 psu comes up
$Comp
L CONN_01X02 P23
U 1 1 564241A6
P 1600 3500
F 0 "P23" H 1600 3650 50  0000 C CNN
F 1 "CONN_01X02" V 1700 3500 50  0000 C CNN
F 2 "conn-100mil:CONN-100MIL-F-1x2" H 1600 3500 60  0001 C CNN
F 3 "" H 1600 3500 60  0000 C CNN
F 4 "2 conn 0.1\" header" H 1600 3500 60  0001 C CNN "MPN"
	1    1600 3500
	-1   0    0    -1  
$EndComp
Text Notes 650  3550 0    60   ~ 0
Single cell LiPo
$Comp
L TPS61232 U30
U 1 1 56435E34
P 8500 3350
F 0 "U30" H 8500 3400 60  0000 C CNN
F 1 "TPS61232" H 8500 2300 60  0000 C CNN
F 2 "IPC7351-Nominal:SON50P300X300X80-11" H 8500 3350 60  0001 C CNN
F 3 "" H 8500 3350 60  0000 C CNN
F 4 "TI" H 8500 3350 60  0001 C CNN "Manuf"
F 5 "TPS61232DRC" H 8500 3350 60  0001 C CNN "MPN"
	1    8500 3350
	1    0    0    -1  
$EndComp
$Comp
L INDUCTOR L3
U 1 1 56435F6A
P 8500 3050
F 0 "L3" V 8450 3050 50  0000 C CNN
F 1 "1u" V 8600 3050 50  0000 C CNN
F 2 "custom:INDP8080X400" H 8500 3050 60  0001 C CNN
F 3 "" H 8500 3050 60  0000 C CNN
F 4 "Bourns" H 8500 3050 60  0001 C CNN "Manuf"
F 5 "SRN8040-1R0Y" H 8500 3050 60  0001 C CNN "MPN"
F 6 ">7A Isat" H 8500 3050 60  0001 C CNN "Notes"
F 7 "RS" V 8500 3050 60  0001 C CNN "Distr1"
F 8 "743-5141" V 8500 3050 60  0001 C CNN "Distr1part"
F 9 "0.239" V 8500 3050 60  0001 C CNN "Distr1cost"
	1    8500 3050
	0    -1   -1   0   
$EndComp
$Comp
L C_Small C61
U 1 1 56436437
P 10100 4000
F 0 "C61" H 10110 4070 50  0000 L CNN
F 1 "22u" H 10110 3920 50  0000 L CNN
F 2 "IPC7351-Nominal:CAPC2012X140" H 10100 4000 60  0001 C CNN
F 3 "" H 10100 4000 60  0000 C CNN
F 4 "Cap 0805 X5R 20% 6.3V" H 10100 4000 60  0001 C CNN "MPN"
	1    10100 4000
	1    0    0    -1  
$EndComp
$Comp
L C_Small C62
U 1 1 5643650B
P 10300 4000
F 0 "C62" H 10310 4070 50  0000 L CNN
F 1 "22u" H 10310 3920 50  0000 L CNN
F 2 "IPC7351-Nominal:CAPC2012X140" H 10300 4000 60  0001 C CNN
F 3 "" H 10300 4000 60  0000 C CNN
F 4 "Cap 0805 X5R 20% 6.3V" H 10300 4000 60  0001 C CNN "MPN"
	1    10300 4000
	1    0    0    -1  
$EndComp
$Comp
L C_Small C63
U 1 1 56436544
P 10500 4000
F 0 "C63" H 10510 4070 50  0000 L CNN
F 1 "22u" H 10510 3920 50  0000 L CNN
F 2 "IPC7351-Nominal:CAPC2012X140" H 10500 4000 60  0001 C CNN
F 3 "" H 10500 4000 60  0000 C CNN
F 4 "Cap 0805 X5R 20% 6.3V" H 10500 4000 60  0001 C CNN "MPN"
	1    10500 4000
	1    0    0    -1  
$EndComp
$Comp
L R_Small R56
U 1 1 564366FC
P 9600 3900
F 0 "R56" H 9630 3920 50  0000 L CNN
F 1 "402k" H 9630 3860 50  0000 L CNN
F 2 "IPC7351-Nominal:RESC1608X50" H 9600 3900 60  0001 C CNN
F 3 "" H 9600 3900 60  0000 C CNN
F 4 "Res 0603 1%" H 9600 3900 60  0001 C CNN "MPN"
	1    9600 3900
	1    0    0    -1  
$EndComp
$Comp
L R_Small R57
U 1 1 5643677D
P 9600 4200
F 0 "R57" H 9630 4220 50  0000 L CNN
F 1 "100k" H 9630 4160 50  0000 L CNN
F 2 "IPC7351-Nominal:RESC1608X50" H 9600 4200 60  0001 C CNN
F 3 "" H 9600 4200 60  0000 C CNN
F 4 "Res 0603 1%" H 9600 4200 60  0001 C CNN "MPN"
	1    9600 4200
	1    0    0    -1  
$EndComp
$Comp
L GND #PWR079
U 1 1 56436892
P 9600 4400
F 0 "#PWR079" H 9600 4150 50  0001 C CNN
F 1 "GND" H 9600 4250 50  0000 C CNN
F 2 "" H 9600 4400 60  0000 C CNN
F 3 "" H 9600 4400 60  0000 C CNN
	1    9600 4400
	1    0    0    -1  
$EndComp
$Comp
L GND #PWR080
U 1 1 5643695E
P 7950 4400
F 0 "#PWR080" H 7950 4150 50  0001 C CNN
F 1 "GND" H 7950 4250 50  0000 C CNN
F 2 "" H 7950 4400 60  0000 C CNN
F 3 "" H 7950 4400 60  0000 C CNN
	1    7950 4400
	1    0    0    -1  
$EndComp
$Comp
L C_Small C56
U 1 1 564369C0
P 7750 4200
F 0 "C56" H 7760 4270 50  0000 L CNN
F 1 "100n" H 7760 4120 50  0000 L CNN
F 2 "IPC7351-Nominal:CAPC1608X90" H 7750 4200 60  0001 C CNN
F 3 "" H 7750 4200 60  0000 C CNN
F 4 "Cap 0603 X7R 10%" H 7750 4200 60  0001 C CNN "MPN"
	1    7750 4200
	1    0    0    -1  
$EndComp
$Comp
L GND #PWR081
U 1 1 56436AA0
P 7750 4400
F 0 "#PWR081" H 7750 4150 50  0001 C CNN
F 1 "GND" H 7750 4250 50  0000 C CNN
F 2 "" H 7750 4400 60  0000 C CNN
F 3 "" H 7750 4400 60  0000 C CNN
	1    7750 4400
	1    0    0    -1  
$EndComp
$Comp
L C_Small C55
U 1 1 56436AF8
P 6850 4000
F 0 "C55" H 6860 4070 50  0000 L CNN
F 1 "22u" H 6860 3920 50  0000 L CNN
F 2 "IPC7351-Nominal:CAPC2012X140" H 6850 4000 60  0001 C CNN
F 3 "" H 6850 4000 60  0000 C CNN
F 4 "Cap 0805 X5R 20% 6.3V" H 6850 4000 60  0001 C CNN "MPN"
	1    6850 4000
	1    0    0    -1  
$EndComp
$Comp
L GND #PWR082
U 1 1 56436BCB
P 10100 4400
F 0 "#PWR082" H 10100 4150 50  0001 C CNN
F 1 "GND" H 10100 4250 50  0000 C CNN
F 2 "" H 10100 4400 60  0000 C CNN
F 3 "" H 10100 4400 60  0000 C CNN
	1    10100 4400
	1    0    0    -1  
$EndComp
$Comp
L GND #PWR083
U 1 1 56436BF7
P 10300 4400
F 0 "#PWR083" H 10300 4150 50  0001 C CNN
F 1 "GND" H 10300 4250 50  0000 C CNN
F 2 "" H 10300 4400 60  0000 C CNN
F 3 "" H 10300 4400 60  0000 C CNN
	1    10300 4400
	1    0    0    -1  
$EndComp
$Comp
L GND #PWR084
U 1 1 56436C23
P 10500 4400
F 0 "#PWR084" H 10500 4150 50  0001 C CNN
F 1 "GND" H 10500 4250 50  0000 C CNN
F 2 "" H 10500 4400 60  0000 C CNN
F 3 "" H 10500 4400 60  0000 C CNN
	1    10500 4400
	1    0    0    -1  
$EndComp
$Comp
L GND #PWR085
U 1 1 56436D6C
P 6850 4400
F 0 "#PWR085" H 6850 4150 50  0001 C CNN
F 1 "GND" H 6850 4250 50  0000 C CNN
F 2 "" H 6850 4400 60  0000 C CNN
F 3 "" H 6850 4400 60  0000 C CNN
	1    6850 4400
	1    0    0    -1  
$EndComp
$Comp
L spst SW1
U 1 1 56437166
P 3500 4900
F 0 "SW1" H 3500 5000 50  0000 C CNN
F 1 "spst" H 3500 4850 50  0000 C CNN
F 2 "conn-100mil:CONN-100MIL-F-1x3" H 3750 5000 60  0001 C CNN
F 3 "" H 3750 5000 60  0000 C CNN
F 4 "EOZ" H 3500 4900 60  0001 C CNN "Manuf"
F 5 "09.03201.02" H 3500 4900 60  0001 C CNN "MPN"
	1    3500 4900
	0    -1   -1   0   
$EndComp
$Comp
L GND #PWR086
U 1 1 564373F5
P 2950 4400
F 0 "#PWR086" H 2950 4150 50  0001 C CNN
F 1 "GND" H 2950 4250 50  0000 C CNN
F 2 "" H 2950 4400 60  0000 C CNN
F 3 "" H 2950 4400 60  0000 C CNN
	1    2950 4400
	1    0    0    -1  
$EndComp
Text Notes 9450 3900 0    60   ~ 0
1
Text Notes 9450 4200 0    60   ~ 0
2
Text Notes 9350 3650 0    60   ~ 0
TPS61230: 1=402k, 2=100k\nTPS61232: 1=0R, 2=NF
$Comp
L GND #PWR087
U 1 1 56437C21
P 6600 4400
F 0 "#PWR087" H 6600 4150 50  0001 C CNN
F 1 "GND" H 6600 4250 50  0000 C CNN
F 2 "" H 6600 4400 60  0000 C CNN
F 3 "" H 6600 4400 60  0000 C CNN
	1    6600 4400
	1    0    0    -1  
$EndComp
Text Notes 6250 3200 0    60   ~ 0
Ceramic close to TPS6123x,\nBulk polarised to prevent ringing
$Comp
L MCP73831 U28
U 1 1 564387A8
P 3800 950
F 0 "U28" H 3800 950 60  0000 C CNN
F 1 "MCP73832" H 3800 250 60  0000 C CNN
F 2 "smd-semi:SOT-23-5" H 3800 950 60  0001 C CNN
F 3 "" H 3800 950 60  0000 C CNN
F 4 "Microchip" H 3800 950 60  0001 C CNN "Manuf"
F 5 "MCP73832-2ACI/OT" H 3800 950 60  0001 C CNN "MPN"
	1    3800 950 
	1    0    0    -1  
$EndComp
$Comp
L GND #PWR088
U 1 1 5643895D
P 2400 1750
F 0 "#PWR088" H 2400 1500 50  0001 C CNN
F 1 "GND" H 2400 1600 50  0000 C CNN
F 2 "" H 2400 1750 60  0000 C CNN
F 3 "" H 2400 1750 60  0000 C CNN
	1    2400 1750
	1    0    0    -1  
$EndComp
$Comp
L C_Small C49
U 1 1 56438A7B
P 2700 1450
F 0 "C49" H 2710 1520 50  0000 L CNN
F 1 "4u7" H 2710 1370 50  0000 L CNN
F 2 "IPC7351-Nominal:CAPC1608X90" H 2700 1450 60  0001 C CNN
F 3 "" H 2700 1450 60  0000 C CNN
F 4 "Cap 0603 X5R 20% 6.3V" H 2700 1450 60  0001 C CNN "MPN"
	1    2700 1450
	1    0    0    -1  
$EndComp
$Comp
L GND #PWR089
U 1 1 56438B10
P 2700 1750
F 0 "#PWR089" H 2700 1500 50  0001 C CNN
F 1 "GND" H 2700 1600 50  0000 C CNN
F 2 "" H 2700 1750 60  0000 C CNN
F 3 "" H 2700 1750 60  0000 C CNN
	1    2700 1750
	1    0    0    -1  
$EndComp
$Comp
L GND #PWR090
U 1 1 56438C3A
P 4500 1750
F 0 "#PWR090" H 4500 1500 50  0001 C CNN
F 1 "GND" H 4500 1600 50  0000 C CNN
F 2 "" H 4500 1750 60  0000 C CNN
F 3 "" H 4500 1750 60  0000 C CNN
	1    4500 1750
	1    0    0    -1  
$EndComp
$Comp
L R_Small R49
U 1 1 56438CBC
P 4800 1550
F 0 "R49" H 4830 1570 50  0000 L CNN
F 1 "2k" H 4830 1510 50  0000 L CNN
F 2 "IPC7351-Nominal:RESC1608X50" H 4800 1550 60  0001 C CNN
F 3 "" H 4800 1550 60  0000 C CNN
F 4 "Res 0603 1%" H 4800 1550 60  0001 C CNN "MPN"
	1    4800 1550
	1    0    0    -1  
$EndComp
$Comp
L GND #PWR091
U 1 1 56438DAC
P 4800 1750
F 0 "#PWR091" H 4800 1500 50  0001 C CNN
F 1 "GND" H 4800 1600 50  0000 C CNN
F 2 "" H 4800 1750 60  0000 C CNN
F 3 "" H 4800 1750 60  0000 C CNN
	1    4800 1750
	1    0    0    -1  
$EndComp
$Comp
L Led_Small D1
U 1 1 56438E9E
P 3000 1300
F 0 "D1" V 3100 1100 50  0000 L CNN
F 1 "red" V 3000 1100 50  0000 L CNN
F 2 "smd-semi:LED-0603" V 3000 1300 60  0001 C CNN
F 3 "" V 3000 1300 60  0000 C CNN
	1    3000 1300
	0    -1   -1   0   
$EndComp
$Comp
L R_Small R45
U 1 1 564392EA
P 3150 1500
F 0 "R45" H 3180 1520 50  0000 L CNN
F 1 "470R" H 3180 1460 50  0000 L CNN
F 2 "IPC7351-Nominal:RESC1608X50" H 3150 1500 60  0001 C CNN
F 3 "" H 3150 1500 60  0000 C CNN
F 4 "Res 0603 1%" H 3150 1500 60  0001 C CNN "MPN"
	1    3150 1500
	0    1    1    0   
$EndComp
Text Notes 600  1000 0    60   ~ 0
Optional charger
Text Notes 1850 3250 0    60   ~ 0
Fit only one link! Arrange PCB\nso physical interlock
$Comp
L R_Small R53
U 1 1 564483F3
P 7200 3650
F 0 "R53" H 7230 3670 50  0000 L CNN
F 1 "9k1" H 7230 3610 50  0000 L CNN
F 2 "IPC7351-Nominal:RESC1608X50" H 7200 3650 60  0001 C CNN
F 3 "" H 7200 3650 60  0000 C CNN
F 4 "Res 0603 1%" H 7200 3650 60  0001 C CNN "MPN"
	1    7200 3650
	1    0    0    -1  
$EndComp
$Comp
L R_Small R54
U 1 1 5644849A
P 7200 3950
F 0 "R54" H 7230 3970 50  0000 L CNN
F 1 "5k6" H 7230 3910 50  0000 L CNN
F 2 "IPC7351-Nominal:RESC1608X50" H 7200 3950 60  0001 C CNN
F 3 "" H 7200 3950 60  0000 C CNN
F 4 "Res 0603 1%" H 7200 3950 60  0001 C CNN "MPN"
	1    7200 3950
	1    0    0    -1  
$EndComp
$Comp
L R_Small R55
U 1 1 564484FA
P 7200 4250
F 0 "R55" H 7230 4270 50  0000 L CNN
F 1 "220R" H 7230 4210 50  0000 L CNN
F 2 "IPC7351-Nominal:RESC1608X50" H 7200 4250 60  0001 C CNN
F 3 "" H 7200 4250 60  0000 C CNN
F 4 "Res 0603 1%" H 7200 4250 60  0001 C CNN "MPN"
	1    7200 4250
	1    0    0    -1  
$EndComp
$Comp
L GND #PWR092
U 1 1 5644928B
P 7200 4400
F 0 "#PWR092" H 7200 4150 50  0001 C CNN
F 1 "GND" H 7200 4250 50  0000 C CNN
F 2 "" H 7200 4400 60  0000 C CNN
F 3 "" H 7200 4400 60  0000 C CNN
	1    7200 4400
	1    0    0    -1  
$EndComp
Text Notes 6800 4950 0    60   ~ 0
Undervoltage lockout (eqn 3)\nVin_off = 2.92v\nVin_on = 3.12v
Text Notes 8250 2850 0    60   ~ 0
Isat > 6A\nR < 10mR
$Comp
L CONN_01X02 P24
U 1 1 5644AA4E
P 13350 3450
F 0 "P24" H 13350 3600 50  0000 C CNN
F 1 "CONN_01X02" V 13450 3450 50  0000 C CNN
F 2 "conn-100mil:CONN-100MIL-F-1x2" H 13350 3450 60  0001 C CNN
F 3 "" H 13350 3450 60  0000 C CNN
F 4 "2 conn 0.1\" header" H 13350 3450 60  0001 C CNN "MPN"
	1    13350 3450
	1    0    0    -1  
$EndComp
$Comp
L R_Small R65
U 1 1 5644B953
P 12200 3400
F 0 "R65" V 12100 3350 50  0000 L CNN
F 1 "20mR" V 12300 3300 50  0000 L CNN
F 2 "IPC7351-Nominal:RESC3216X65" H 12200 3400 60  0001 C CNN
F 3 "" H 12200 3400 60  0000 C CNN
F 4 "Panasonic" H 12200 3400 60  0001 C CNN "Manuf"
F 5 "ERJ8CWFR020V" H 12200 3400 60  0001 C CNN "MPN"
	1    12200 3400
	0    1    1    0   
$EndComp
$Comp
L GND #PWR093
U 1 1 5644BD38
P 13000 4350
F 0 "#PWR093" H 13000 4100 50  0001 C CNN
F 1 "GND" H 13000 4200 50  0000 C CNN
F 2 "" H 13000 4350 60  0000 C CNN
F 3 "" H 13000 4350 60  0000 C CNN
	1    13000 4350
	1    0    0    -1  
$EndComp
$Comp
L INA231 U31
U 1 1 5644D852
P 13000 5500
F 0 "U31" H 13000 5550 60  0000 C CNN
F 1 "INA231" H 13000 4450 60  0000 C CNN
F 2 "custom:BGA_12" H 13000 5550 60  0001 C CNN
F 3 "" H 13000 5550 60  0000 C CNN
F 4 "TI" H 13000 5500 60  0001 C CNN "Manuf"
F 5 "INA231AIYFF" H 13000 5500 60  0001 C CNN "MPN"
	1    13000 5500
	1    0    0    -1  
$EndComp
$Comp
L GND #PWR094
U 1 1 5644EF54
P 12450 6650
F 0 "#PWR094" H 12450 6400 50  0001 C CNN
F 1 "GND" H 12450 6500 50  0000 C CNN
F 2 "" H 12450 6650 60  0000 C CNN
F 3 "" H 12450 6650 60  0000 C CNN
	1    12450 6650
	1    0    0    -1  
$EndComp
Text GLabel 15300 5900 2    50   Input ~ 0
xu4_i2c_1.scl
Text GLabel 15300 5800 2    50   Input ~ 0
xu4_i2c_1.sda
$Comp
L C_Small C64
U 1 1 564522E2
P 11750 6500
F 0 "C64" H 11760 6570 50  0000 L CNN
F 1 "100n" H 11760 6420 50  0000 L CNN
F 2 "IPC7351-Nominal:CAPC1608X90" H 11750 6500 60  0001 C CNN
F 3 "" H 11750 6500 60  0000 C CNN
F 4 "Cap 0603 X7R 10%" H 11750 6500 60  0001 C CNN "MPN"
	1    11750 6500
	1    0    0    -1  
$EndComp
$Comp
L XU4_5V #PWR095
U 1 1 56452CE1
P 11750 6350
F 0 "#PWR095" H 11750 6200 50  0001 C CNN
F 1 "XU4_5V" H 11750 6490 50  0000 C CNN
F 2 "" H 11750 6350 60  0000 C CNN
F 3 "" H 11750 6350 60  0000 C CNN
	1    11750 6350
	1    0    0    -1  
$EndComp
$Comp
L GND #PWR096
U 1 1 56452DE5
P 11750 6650
F 0 "#PWR096" H 11750 6400 50  0001 C CNN
F 1 "GND" H 11750 6500 50  0000 C CNN
F 2 "" H 11750 6650 60  0000 C CNN
F 3 "" H 11750 6650 60  0000 C CNN
	1    11750 6650
	1    0    0    -1  
$EndComp
Text Notes 13900 5700 0    60   ~ 0
XU3 kernel looks for \nINA231 on addresses\n0x40, 0x41, 0x44, 0x45.\n\nSet address according to Table 7\nin datasheet : \noutput = 0x41\ninput = 0x40\n\n0x40 = A0-GND, A1-GND\n0x41 = A0-VS, A1-GND\n0x44 = A0-GND, A1-VS\n0x45 = A0-VS, A1-VS
$Comp
L GND #PWR097
U 1 1 56453CB0
P 13550 6650
F 0 "#PWR097" H 13550 6400 50  0001 C CNN
F 1 "GND" H 13550 6500 50  0000 C CNN
F 2 "" H 13550 6650 60  0000 C CNN
F 3 "" H 13550 6650 60  0000 C CNN
	1    13550 6650
	1    0    0    -1  
$EndComp
$Comp
L C_Small C65
U 1 1 56455FCC
P 12200 6100
F 0 "C65" H 12210 6170 50  0000 L CNN
F 1 "100n" H 12210 6020 50  0000 L CNN
F 2 "IPC7351-Nominal:CAPC1608X90" H 12200 6100 60  0001 C CNN
F 3 "" H 12200 6100 60  0000 C CNN
F 4 "Cap 0603 X7R 10%" H 12200 6100 60  0001 C CNN "MPN"
	1    12200 6100
	0    1    1    0   
$EndComp
$Comp
L R_Small R66
U 1 1 56456628
P 12450 5750
F 0 "R66" H 12300 5750 50  0000 L CNN
F 1 "10R" V 12525 5675 50  0000 L CNN
F 2 "IPC7351-Nominal:RESC1608X50" H 12450 5750 60  0001 C CNN
F 3 "" H 12450 5750 60  0000 C CNN
F 4 "Res 0603 1%" H 12450 5750 60  0001 C CNN "MPN"
	1    12450 5750
	1    0    0    -1  
$EndComp
$Comp
L R_Small R64
U 1 1 564567C4
P 11950 5750
F 0 "R64" H 11800 5750 50  0000 L CNN
F 1 "10R" V 12025 5675 50  0000 L CNN
F 2 "IPC7351-Nominal:RESC1608X50" H 11950 5750 60  0001 C CNN
F 3 "" H 11950 5750 60  0000 C CNN
F 4 "Res 0603 1%" H 11950 5750 60  0001 C CNN "MPN"
	1    11950 5750
	1    0    0    -1  
$EndComp
Text Notes 11550 3000 0    60   ~ 0
Shunt develops 80mV at 4A
$Comp
L STEPUPMOD U29
U 1 1 5645DD47
P 8450 6000
F 0 "U29" H 8450 6000 60  0000 C CNN
F 1 "STEPUPMOD" H 8450 5400 60  0000 C CNN
F 2 "conn-100mil:CONN-100MIL-M-1x4" H 8450 6000 60  0001 C CNN
F 3 "" H 8450 6000 60  0000 C CNN
F 4 "4 conn 0.1\" header" H 8450 6000 60  0001 C CNN "MPN"
	1    8450 6000
	1    0    0    -1  
$EndComp
$Comp
L GND #PWR098
U 1 1 5645E0F3
P 7650 6650
F 0 "#PWR098" H 7650 6400 50  0001 C CNN
F 1 "GND" H 7650 6500 50  0000 C CNN
F 2 "" H 7650 6650 60  0000 C CNN
F 3 "" H 7650 6650 60  0000 C CNN
	1    7650 6650
	1    0    0    -1  
$EndComp
$Comp
L GND #PWR099
U 1 1 5645E182
P 9250 6650
F 0 "#PWR099" H 9250 6400 50  0001 C CNN
F 1 "GND" H 9250 6500 50  0000 C CNN
F 2 "" H 9250 6650 60  0000 C CNN
F 3 "" H 9250 6650 60  0000 C CNN
	1    9250 6650
	1    0    0    -1  
$EndComp
Text Notes 7950 7350 0    60   ~ 0
Alternative external module
Text GLabel 1800 6750 0    50   Output ~ 0
epuck_enable_ldo
$Comp
L R_Small R46
U 1 1 5646B18D
P 3050 6500
F 0 "R46" V 2950 6450 50  0000 L CNN
F 1 "4k7" V 3150 6450 50  0000 L CNN
F 2 "IPC7351-Nominal:RESC1608X50" H 3050 6500 60  0001 C CNN
F 3 "" H 3050 6500 60  0000 C CNN
F 4 "Res 0603 1%" H 3050 6500 60  0001 C CNN "MPN"
	1    3050 6500
	-1   0    0    1   
$EndComp
$Comp
L R_Small R47
U 1 1 5646B2EB
P 3050 7000
F 0 "R47" V 2950 6950 50  0000 L CNN
F 1 "10k" V 3150 6950 50  0000 L CNN
F 2 "IPC7351-Nominal:RESC1608X50" H 3050 7000 60  0001 C CNN
F 3 "" H 3050 7000 60  0000 C CNN
F 4 "Res 0603 1%" H 3050 7000 60  0001 C CNN "MPN"
	1    3050 7000
	-1   0    0    1   
$EndComp
$Comp
L GND #PWR0100
U 1 1 5646B3AA
P 3050 7400
F 0 "#PWR0100" H 3050 7150 50  0001 C CNN
F 1 "GND" H 3050 7250 50  0000 C CNN
F 2 "" H 3050 7400 60  0000 C CNN
F 3 "" H 3050 7400 60  0000 C CNN
	1    3050 7400
	1    0    0    -1  
$EndComp
$Comp
L xu4_5v #PWR0101
U 1 1 5646C317
P 12900 3250
F 0 "#PWR0101" H 12900 3100 50  0001 C CNN
F 1 "xu4_5v" H 12900 3390 50  0000 C CNN
F 2 "" H 12900 3250 60  0000 C CNN
F 3 "" H 12900 3250 60  0000 C CNN
	1    12900 3250
	1    0    0    -1  
$EndComp
$Comp
L xu4_5v #PWR0102
U 1 1 5646D353
P 3050 6100
F 0 "#PWR0102" H 3050 5950 50  0001 C CNN
F 1 "xu4_5v" H 3050 6240 50  0000 C CNN
F 2 "" H 3050 6100 60  0000 C CNN
F 3 "" H 3050 6100 60  0000 C CNN
	1    3050 6100
	1    0    0    -1  
$EndComp
$Comp
L R_Small R44
U 1 1 5646EA27
P 2600 6500
F 0 "R44" V 2500 6450 50  0000 L CNN
F 1 "4k7" V 2700 6450 50  0000 L CNN
F 2 "IPC7351-Nominal:RESC1608X50" H 2600 6500 60  0001 C CNN
F 3 "" H 2600 6500 60  0000 C CNN
F 4 "Res 0603 1%" H 2600 6500 60  0001 C CNN "MPN"
	1    2600 6500
	-1   0    0    1   
$EndComp
Text GLabel 1800 6000 0    50   Input ~ 0
epuck_vccbatt
Text GLabel 8050 1650 0    50   Input ~ 0
xu4_gnd
$Comp
L GND #PWR0103
U 1 1 5647629F
P 8300 1900
F 0 "#PWR0103" H 8300 1650 50  0001 C CNN
F 1 "GND" H 8300 1750 50  0000 C CNN
F 2 "" H 8300 1900 60  0000 C CNN
F 3 "" H 8300 1900 60  0000 C CNN
	1    8300 1900
	1    0    0    -1  
$EndComp
Text GLabel 8050 1350 0    50   Input ~ 0
xu4_vdd_io
$Comp
L xu4_1v8 #PWR0104
U 1 1 564762A8
P 8300 1150
F 0 "#PWR0104" H 8300 1000 50  0001 C CNN
F 1 "xu4_1v8" H 8300 1290 50  0000 C CNN
F 2 "" H 8300 1150 60  0000 C CNN
F 3 "" H 8300 1150 60  0000 C CNN
	1    8300 1150
	1    0    0    -1  
$EndComp
$Comp
L GND #PWR0105
U 1 1 564772A0
P 11150 1300
F 0 "#PWR0105" H 11150 1050 50  0001 C CNN
F 1 "GND" H 11150 1150 50  0000 C CNN
F 2 "" H 11150 1300 60  0000 C CNN
F 3 "" H 11150 1300 60  0000 C CNN
	1    11150 1300
	1    0    0    -1  
$EndComp
$Comp
L PWR_FLAG #FLG0106
U 1 1 564773CD
P 11150 1200
F 0 "#FLG0106" H 11150 1295 50  0001 C CNN
F 1 "PWR_FLAG" H 11150 1380 50  0000 C CNN
F 2 "" H 11150 1200 60  0000 C CNN
F 3 "" H 11150 1200 60  0000 C CNN
	1    11150 1200
	1    0    0    -1  
$EndComp
$Comp
L xu4_5v #PWR0107
U 1 1 5647B9DB
P 11750 1150
F 0 "#PWR0107" H 11750 1000 50  0001 C CNN
F 1 "xu4_5v" H 11750 1290 50  0000 C CNN
F 2 "" H 11750 1150 60  0000 C CNN
F 3 "" H 11750 1150 60  0000 C CNN
	1    11750 1150
	1    0    0    -1  
$EndComp
$Comp
L PWR_FLAG #FLG0108
U 1 1 5647BA76
P 11750 1300
F 0 "#FLG0108" H 11750 1395 50  0001 C CNN
F 1 "PWR_FLAG" H 11750 1480 50  0000 C CNN
F 2 "" H 11750 1300 60  0000 C CNN
F 3 "" H 11750 1300 60  0000 C CNN
	1    11750 1300
	1    0    0    1   
$EndComp
$Comp
L xu4_1v8 #PWR0109
U 1 1 5647D28E
P 12350 1150
F 0 "#PWR0109" H 12350 1000 50  0001 C CNN
F 1 "xu4_1v8" H 12350 1290 50  0000 C CNN
F 2 "" H 12350 1150 60  0000 C CNN
F 3 "" H 12350 1150 60  0000 C CNN
	1    12350 1150
	1    0    0    -1  
$EndComp
$Comp
L PWR_FLAG #FLG0110
U 1 1 5647D869
P 12350 1300
F 0 "#FLG0110" H 12350 1395 50  0001 C CNN
F 1 "PWR_FLAG" H 12350 1480 50  0000 C CNN
F 2 "" H 12350 1300 60  0000 C CNN
F 3 "" H 12350 1300 60  0000 C CNN
	1    12350 1300
	1    0    0    1   
$EndComp
Text GLabel 9350 1350 0    50   Input ~ 0
epuck_vcc3v3
Text GLabel 9350 1650 0    50   Input ~ 0
epuck_gnd3v3
$Comp
L GND #PWR0111
U 1 1 564807CB
P 9600 1900
F 0 "#PWR0111" H 9600 1650 50  0001 C CNN
F 1 "GND" H 9600 1750 50  0000 C CNN
F 2 "" H 9600 1900 60  0000 C CNN
F 3 "" H 9600 1900 60  0000 C CNN
	1    9600 1900
	1    0    0    -1  
$EndComp
$Comp
L epuck_3v3 #PWR0112
U 1 1 56480AAE
P 9600 1150
F 0 "#PWR0112" H 9600 1000 50  0001 C CNN
F 1 "epuck_3v3" H 9600 1290 50  0000 C CNN
F 2 "" H 9600 1150 60  0000 C CNN
F 3 "" H 9600 1150 60  0000 C CNN
	1    9600 1150
	1    0    0    -1  
$EndComp
$Comp
L PWR_FLAG #FLG0113
U 1 1 56481306
P 12950 1300
F 0 "#FLG0113" H 12950 1395 50  0001 C CNN
F 1 "PWR_FLAG" H 12950 1480 50  0000 C CNN
F 2 "" H 12950 1300 60  0000 C CNN
F 3 "" H 12950 1300 60  0000 C CNN
	1    12950 1300
	1    0    0    1   
$EndComp
$Comp
L epuck_3v3 #PWR0114
U 1 1 564823BE
P 12950 1150
F 0 "#PWR0114" H 12950 1000 50  0001 C CNN
F 1 "epuck_3v3" H 12950 1290 50  0000 C CNN
F 2 "" H 12950 1150 60  0000 C CNN
F 3 "" H 12950 1150 60  0000 C CNN
	1    12950 1150
	1    0    0    -1  
$EndComp
$Comp
L R_Small R75
U 1 1 56487FAE
P 15050 5800
F 0 "R75" V 15000 5900 50  0000 L CNN
F 1 "0R" V 15050 5750 50  0000 L CNN
F 2 "IPC7351-Nominal:RESC1608X50" H 15050 5800 60  0001 C CNN
F 3 "" H 15050 5800 60  0000 C CNN
F 4 "Res 0603 1%" H 15050 5800 60  0001 C CNN "MPN"
	1    15050 5800
	0    1    1    0   
$EndComp
$Comp
L R_Small R76
U 1 1 5648816B
P 15050 5900
F 0 "R76" V 15000 6000 50  0000 L CNN
F 1 "0R" V 15050 5850 50  0000 L CNN
F 2 "IPC7351-Nominal:RESC1608X50" H 15050 5900 60  0001 C CNN
F 3 "" H 15050 5900 60  0000 C CNN
F 4 "Res 0603 1%" H 15050 5900 60  0001 C CNN "MPN"
	1    15050 5900
	0    1    1    0   
$EndComp
$Comp
L GND #PWR0115
U 1 1 564C5C9D
P 2200 10250
F 0 "#PWR0115" H 2200 10000 50  0001 C CNN
F 1 "GND" H 2200 10100 50  0000 C CNN
F 2 "" H 2200 10250 60  0000 C CNN
F 3 "" H 2200 10250 60  0000 C CNN
	1    2200 10250
	1    0    0    -1  
$EndComp
$Comp
L C_Small C48
U 1 1 564C5FA2
P 2800 10000
F 0 "C48" H 2810 10070 50  0000 L CNN
F 1 "10u" H 2810 9920 50  0000 L CNN
F 2 "IPC7351-Nominal:CAPC1608X90" H 2800 10000 60  0001 C CNN
F 3 "" H 2800 10000 60  0000 C CNN
F 4 "Cap 0603 X5R 20% 6.3V" H 2800 10000 60  0001 C CNN "MPN"
	1    2800 10000
	1    0    0    -1  
$EndComp
$Comp
L C_Small C47
U 1 1 564C638B
P 1600 10000
F 0 "C47" H 1610 10070 50  0000 L CNN
F 1 "100n" H 1610 9920 50  0000 L CNN
F 2 "IPC7351-Nominal:CAPC1608X90" H 1600 10000 60  0001 C CNN
F 3 "" H 1600 10000 60  0000 C CNN
F 4 "Cap 0603 X7R 10%" H 1600 10000 60  0001 C CNN "MPN"
	1    1600 10000
	1    0    0    -1  
$EndComp
$Comp
L GND #PWR0116
U 1 1 564C6733
P 2800 10250
F 0 "#PWR0116" H 2800 10000 50  0001 C CNN
F 1 "GND" H 2800 10100 50  0000 C CNN
F 2 "" H 2800 10250 60  0000 C CNN
F 3 "" H 2800 10250 60  0000 C CNN
	1    2800 10250
	1    0    0    -1  
$EndComp
$Comp
L GND #PWR0117
U 1 1 564C67E6
P 1600 10250
F 0 "#PWR0117" H 1600 10000 50  0001 C CNN
F 1 "GND" H 1600 10100 50  0000 C CNN
F 2 "" H 1600 10250 60  0000 C CNN
F 3 "" H 1600 10250 60  0000 C CNN
	1    1600 10250
	1    0    0    -1  
$EndComp
$Comp
L usb_3v3 #PWR0118
U 1 1 564C6B42
P 2800 9500
F 0 "#PWR0118" H 2800 9350 50  0001 C CNN
F 1 "usb_3v3" H 2800 9640 50  0000 C CNN
F 2 "" H 2800 9500 60  0000 C CNN
F 3 "" H 2800 9500 60  0000 C CNN
	1    2800 9500
	1    0    0    -1  
$EndComp
$Comp
L VBUS #PWR0119
U 1 1 564C6BFE
P 1600 9500
F 0 "#PWR0119" H 1600 9350 50  0001 C CNN
F 1 "VBUS" H 1600 9650 50  0000 C CNN
F 2 "" H 1600 9500 60  0000 C CNN
F 3 "" H 1600 9500 60  0000 C CNN
	1    1600 9500
	1    0    0    -1  
$EndComp
$Comp
L usb_3v3 #PWR0120
U 1 1 564C7F82
P 3700 9500
F 0 "#PWR0120" H 3700 9350 50  0001 C CNN
F 1 "usb_3v3" H 3700 9640 50  0000 C CNN
F 2 "" H 3700 9500 60  0000 C CNN
F 3 "" H 3700 9500 60  0000 C CNN
	1    3700 9500
	1    0    0    -1  
$EndComp
$Comp
L C_Small C50
U 1 1 564C8038
P 3700 10000
F 0 "C50" H 3710 10070 50  0000 L CNN
F 1 "1u" H 3710 9920 50  0000 L CNN
F 2 "IPC7351-Nominal:CAPC1608X90" H 3700 10000 60  0001 C CNN
F 3 "" H 3700 10000 60  0000 C CNN
F 4 "Cap 0603 X5R 20% 6.3V" H 3700 10000 60  0001 C CNN "MPN"
	1    3700 10000
	1    0    0    -1  
$EndComp
$Comp
L GND #PWR0121
U 1 1 564C8103
P 3700 10250
F 0 "#PWR0121" H 3700 10000 50  0001 C CNN
F 1 "GND" H 3700 10100 50  0000 C CNN
F 2 "" H 3700 10250 60  0000 C CNN
F 3 "" H 3700 10250 60  0000 C CNN
	1    3700 10250
	1    0    0    -1  
$EndComp
$Comp
L GND #PWR0122
U 1 1 564C81BC
P 4300 10250
F 0 "#PWR0122" H 4300 10000 50  0001 C CNN
F 1 "GND" H 4300 10100 50  0000 C CNN
F 2 "" H 4300 10250 60  0000 C CNN
F 3 "" H 4300 10250 60  0000 C CNN
	1    4300 10250
	1    0    0    -1  
$EndComp
$Comp
L C_Small C51
U 1 1 564C8BE0
P 4950 10000
F 0 "C51" H 4960 10070 50  0000 L CNN
F 1 "1u" H 4960 9920 50  0000 L CNN
F 2 "IPC7351-Nominal:CAPC1608X90" H 4950 10000 60  0001 C CNN
F 3 "" H 4950 10000 60  0000 C CNN
F 4 "Cap 0603 X5R 20% 6.3V" H 4950 10000 60  0001 C CNN "MPN"
	1    4950 10000
	1    0    0    -1  
$EndComp
$Comp
L GND #PWR0123
U 1 1 564C90FC
P 4950 10250
F 0 "#PWR0123" H 4950 10000 50  0001 C CNN
F 1 "GND" H 4950 10100 50  0000 C CNN
F 2 "" H 4950 10250 60  0000 C CNN
F 3 "" H 4950 10250 60  0000 C CNN
	1    4950 10250
	1    0    0    -1  
$EndComp
$Comp
L ice_1v2 #PWR0124
U 1 1 564C96B0
P 4950 9500
F 0 "#PWR0124" H 4950 9350 50  0001 C CNN
F 1 "ice_1v2" H 4950 9640 50  0000 C CNN
F 2 "" H 4950 9500 60  0000 C CNN
F 3 "" H 4950 9500 60  0000 C CNN
	1    4950 9500
	1    0    0    -1  
$EndComp
$Comp
L ice_1v2 #PWR0125
U 1 1 564CA010
P 8900 9750
F 0 "#PWR0125" H 8900 9600 50  0001 C CNN
F 1 "ice_1v2" H 8900 9890 50  0000 C CNN
F 2 "" H 8900 9750 60  0000 C CNN
F 3 "" H 8900 9750 60  0000 C CNN
	1    8900 9750
	1    0    0    -1  
$EndComp
$Comp
L GND #PWR0126
U 1 1 564CA671
P 6900 9550
F 0 "#PWR0126" H 6900 9300 50  0001 C CNN
F 1 "GND" H 6900 9400 50  0000 C CNN
F 2 "" H 6900 9550 60  0000 C CNN
F 3 "" H 6900 9550 60  0000 C CNN
	1    6900 9550
	1    0    0    -1  
$EndComp
$Comp
L C_Small C52
U 1 1 564CB654
P 6300 10000
F 0 "C52" H 6310 10070 50  0000 L CNN
F 1 "10u" H 6310 9920 50  0000 L CNN
F 2 "IPC7351-Nominal:CAPC1608X90" H 6300 10000 60  0001 C CNN
F 3 "" H 6300 10000 60  0000 C CNN
F 4 "Cap X5R 20% 6.3V" H 6300 10000 60  0001 C CNN "MPN"
	1    6300 10000
	1    0    0    -1  
$EndComp
$Comp
L C_Small C53
U 1 1 564CB802
P 6500 10000
F 0 "C53" H 6510 10070 50  0000 L CNN
F 1 "100n" H 6510 9920 50  0000 L CNN
F 2 "IPC7351-Nominal:CAPC1608X90" H 6500 10000 60  0001 C CNN
F 3 "" H 6500 10000 60  0000 C CNN
F 4 "Cap 0603 X7R 10%" H 6500 10000 60  0001 C CNN "MPN"
	1    6500 10000
	1    0    0    -1  
$EndComp
$Comp
L ice_1v2 #PWR0127
U 1 1 564CB91D
P 6300 9500
F 0 "#PWR0127" H 6300 9350 50  0001 C CNN
F 1 "ice_1v2" H 6300 9640 50  0000 C CNN
F 2 "" H 6300 9500 60  0000 C CNN
F 3 "" H 6300 9500 60  0000 C CNN
	1    6300 9500
	1    0    0    -1  
$EndComp
$Comp
L R_Small R52
U 1 1 564CBADF
P 6300 9700
F 0 "R52" V 6200 9650 50  0000 L CNN
F 1 "100R" V 6400 9650 50  0000 L CNN
F 2 "IPC7351-Nominal:RESC1608X50" H 6300 9700 60  0001 C CNN
F 3 "" H 6300 9700 60  0000 C CNN
F 4 "Res 0603 1%" H 6300 9700 60  0001 C CNN "MPN"
	1    6300 9700
	-1   0    0    1   
$EndComp
$Comp
L usb_3v3 #PWR0128
U 1 1 564CC86B
P 9500 8650
F 0 "#PWR0128" H 9500 8500 50  0001 C CNN
F 1 "usb_3v3" H 9500 8790 50  0000 C CNN
F 2 "" H 9500 8650 60  0000 C CNN
F 3 "" H 9500 8650 60  0000 C CNN
	1    9500 8650
	1    0    0    -1  
$EndComp
$Comp
L C_Small C57
U 1 1 564D5B82
P 9300 10000
F 0 "C57" H 9310 10070 50  0000 L CNN
F 1 "100n" H 9310 9920 50  0000 L CNN
F 2 "IPC7351-Nominal:CAPC1608X90" H 9300 10000 60  0001 C CNN
F 3 "" H 9300 10000 60  0000 C CNN
F 4 "Cap 0603 X7R 10%" H 9300 10000 60  0001 C CNN "MPN"
	1    9300 10000
	1    0    0    -1  
$EndComp
$Comp
L C_Small C58
U 1 1 564CCD1D
P 9500 10000
F 0 "C58" H 9510 10070 50  0000 L CNN
F 1 "100n" H 9510 9920 50  0000 L CNN
F 2 "IPC7351-Nominal:CAPC1608X90" H 9500 10000 60  0001 C CNN
F 3 "" H 9500 10000 60  0000 C CNN
F 4 "Cap 0603 X7R 10%" H 9500 10000 60  0001 C CNN "MPN"
	1    9500 10000
	1    0    0    -1  
$EndComp
$Comp
L C_Small C59
U 1 1 564CCDF3
P 9700 10000
F 0 "C59" H 9710 10070 50  0000 L CNN
F 1 "100n" H 9710 9920 50  0000 L CNN
F 2 "IPC7351-Nominal:CAPC1608X90" H 9700 10000 60  0001 C CNN
F 3 "" H 9700 10000 60  0000 C CNN
F 4 "Cap 0603 X7R 10%" H 9700 10000 60  0001 C CNN "MPN"
	1    9700 10000
	1    0    0    -1  
$EndComp
$Comp
L C_Small C60
U 1 1 564CCECC
P 9900 10000
F 0 "C60" H 9910 10070 50  0000 L CNN
F 1 "100n" H 9910 9920 50  0000 L CNN
F 2 "IPC7351-Nominal:CAPC1608X90" H 9900 10000 60  0001 C CNN
F 3 "" H 9900 10000 60  0000 C CNN
F 4 "Cap 0603 X7R 10%" H 9900 10000 60  0001 C CNN "MPN"
	1    9900 10000
	1    0    0    -1  
$EndComp
$Comp
L GND #PWR0129
U 1 1 564CD87B
P 9300 10250
F 0 "#PWR0129" H 9300 10000 50  0001 C CNN
F 1 "GND" H 9300 10100 50  0000 C CNN
F 2 "" H 9300 10250 60  0000 C CNN
F 3 "" H 9300 10250 60  0000 C CNN
	1    9300 10250
	1    0    0    -1  
$EndComp
$Comp
L ice_1v2 #PWR0130
U 1 1 564CDAC5
P 9900 9750
F 0 "#PWR0130" H 9900 9600 50  0001 C CNN
F 1 "ice_1v2" H 9900 9890 50  0000 C CNN
F 2 "" H 9900 9750 60  0000 C CNN
F 3 "" H 9900 9750 60  0000 C CNN
	1    9900 9750
	1    0    0    -1  
$EndComp
Text Notes 1100 8500 0    50   ~ 0
USB interface and FPGA core and\nsome IO are powered from the USB\n5v line. This is actually the same as\nxu4_5v in most cases, but will allow\nthe USB and FPGA functionality to \nbe tested without the XU4
NoConn ~ 8700 8650
NoConn ~ 9000 4250
$Comp
L PWR_FLAG #FLG0131
U 1 1 564CF53E
P 6500 6100
F 0 "#FLG0131" H 6500 6195 30  0001 C CNN
F 1 "PWR_FLAG" H 6500 6280 30  0000 C CNN
F 2 "" H 6500 6100 60  0000 C CNN
F 3 "" H 6500 6100 60  0000 C CNN
	1    6500 6100
	1    0    0    -1  
$EndComp
NoConn ~ 2100 1200
NoConn ~ 2100 1300
$Comp
L PWR_FLAG #FLG0132
U 1 1 564D11D3
P 8850 8700
F 0 "#FLG0132" H 8850 8795 30  0001 C CNN
F 1 "PWR_FLAG" H 8850 8880 30  0000 C CNN
F 2 "" H 8850 8700 60  0000 C CNN
F 3 "" H 8850 8700 60  0000 C CNN
	1    8850 8700
	1    0    0    -1  
$EndComp
$Comp
L PWR_FLAG #FLG0133
U 1 1 564D15C6
P 6650 9800
F 0 "#FLG0133" H 6650 9895 30  0001 C CNN
F 1 "PWR_FLAG" H 6650 9980 30  0000 C CNN
F 2 "" H 6650 9800 60  0000 C CNN
F 3 "" H 6650 9800 60  0000 C CNN
	1    6650 9800
	1    0    0    -1  
$EndComp
$Comp
L PWR_FLAG #FLG0134
U 1 1 564D16A6
P 6800 10100
F 0 "#FLG0134" H 6800 10195 30  0001 C CNN
F 1 "PWR_FLAG" H 6800 10280 30  0000 C CNN
F 2 "" H 6800 10100 60  0000 C CNN
F 3 "" H 6800 10100 60  0000 C CNN
	1    6800 10100
	1    0    0    -1  
$EndComp
$Comp
L CPsmall C54
U 1 1 564D4EB0
P 6600 4000
F 0 "C54" H 6610 4070 50  0000 L CNN
F 1 "100u" H 6610 3920 50  0000 L CNN
F 2 "IPC7351-Nominal:CAPMP6032X280" H 6600 4000 60  0001 C CNN
F 3 "" H 6600 4000 60  0000 C CNN
F 4 "Cap 0805 X5R 20%" H 6600 4000 60  0001 C CNN "MPN"
	1    6600 4000
	1    0    0    -1  
$EndComp
$Comp
L USB_MICRO_B P22
U 1 1 564D0D95
P 1800 1300
F 0 "P22" H 2000 1100 50  0000 C CNN
F 1 "USB_MICRO_B" H 1750 1500 50  0000 C CNN
F 2 "custom:usb_micro_b_vert" V 1750 1200 60  0000 C CNN
F 3 "" V 1750 1200 60  0000 C CNN
F 4 "Molex" H 1800 1300 60  0001 C CNN "Manuf"
F 5 "105133-0011" H 1800 1300 60  0001 C CNN "MPN"
	1    1800 1300
	0    -1   1    0   
$EndComp
NoConn ~ 2100 1400
$Comp
L INA231 U32
U 1 1 564F6589
P 13000 7400
F 0 "U32" H 13000 7450 60  0000 C CNN
F 1 "INA231" H 13000 6350 60  0000 C CNN
F 2 "custom:BGA_12" H 13000 7450 60  0001 C CNN
F 3 "" H 13000 7450 60  0000 C CNN
F 4 "TI" H 13000 7400 60  0001 C CNN "Manuf"
F 5 "INA231AIYFF" H 13000 7400 60  0001 C CNN "MPN"
	1    13000 7400
	1    0    0    -1  
$EndComp
$Comp
L GND #PWR0135
U 1 1 564F658F
P 12450 8550
F 0 "#PWR0135" H 12450 8300 50  0001 C CNN
F 1 "GND" H 12450 8400 50  0000 C CNN
F 2 "" H 12450 8550 60  0000 C CNN
F 3 "" H 12450 8550 60  0000 C CNN
	1    12450 8550
	1    0    0    -1  
$EndComp
$Comp
L C_Small C66
U 1 1 564F6597
P 11750 8400
F 0 "C66" H 11760 8470 50  0000 L CNN
F 1 "100n" H 11760 8320 50  0000 L CNN
F 2 "IPC7351-Nominal:CAPC1608X90" H 11750 8400 60  0001 C CNN
F 3 "" H 11750 8400 60  0000 C CNN
F 4 "Cap 0603 X7R 10%" H 11750 8400 60  0001 C CNN "MPN"
	1    11750 8400
	1    0    0    -1  
$EndComp
$Comp
L XU4_5V #PWR0136
U 1 1 564F659D
P 11750 8250
F 0 "#PWR0136" H 11750 8100 50  0001 C CNN
F 1 "XU4_5V" H 11750 8390 50  0000 C CNN
F 2 "" H 11750 8250 60  0000 C CNN
F 3 "" H 11750 8250 60  0000 C CNN
	1    11750 8250
	1    0    0    -1  
$EndComp
$Comp
L GND #PWR0137
U 1 1 564F65A3
P 11750 8550
F 0 "#PWR0137" H 11750 8300 50  0001 C CNN
F 1 "GND" H 11750 8400 50  0000 C CNN
F 2 "" H 11750 8550 60  0000 C CNN
F 3 "" H 11750 8550 60  0000 C CNN
	1    11750 8550
	1    0    0    -1  
$EndComp
$Comp
L GND #PWR0138
U 1 1 564F65DA
P 13550 8550
F 0 "#PWR0138" H 13550 8300 50  0001 C CNN
F 1 "GND" H 13550 8400 50  0000 C CNN
F 2 "" H 13550 8550 60  0000 C CNN
F 3 "" H 13550 8550 60  0000 C CNN
	1    13550 8550
	1    0    0    -1  
$EndComp
$Comp
L C_Small C67
U 1 1 564F65E0
P 12200 8000
F 0 "C67" H 12210 8070 50  0000 L CNN
F 1 "100n" H 12210 7920 50  0000 L CNN
F 2 "IPC7351-Nominal:CAPC1608X90" H 12200 8000 60  0001 C CNN
F 3 "" H 12200 8000 60  0000 C CNN
F 4 "Cap 0603 X7R 10%" H 12200 8000 60  0001 C CNN "MPN"
	1    12200 8000
	0    1    1    0   
$EndComp
$Comp
L R_Small R58
U 1 1 564F65E6
P 12450 7650
F 0 "R58" H 12300 7650 50  0000 L CNN
F 1 "10R" V 12525 7575 50  0000 L CNN
F 2 "IPC7351-Nominal:RESC1608X50" H 12450 7650 60  0001 C CNN
F 3 "" H 12450 7650 60  0000 C CNN
F 4 "Res 0603 1%" H 12450 7650 60  0001 C CNN "MPN"
	1    12450 7650
	1    0    0    -1  
$EndComp
$Comp
L R_Small R51
U 1 1 564F65EC
P 11950 7650
F 0 "R51" H 11800 7650 50  0000 L CNN
F 1 "10R" V 12025 7575 50  0000 L CNN
F 2 "IPC7351-Nominal:RESC1608X50" H 11950 7650 60  0001 C CNN
F 3 "" H 11950 7650 60  0000 C CNN
F 4 "Res 0603 1%" H 11950 7650 60  0001 C CNN "MPN"
	1    11950 7650
	1    0    0    -1  
$EndComp
$Comp
L R_Small R50
U 1 1 564F6DBB
P 5350 3450
F 0 "R50" V 5250 3400 50  0000 L CNN
F 1 "20mR" V 5450 3350 50  0000 L CNN
F 2 "IPC7351-Nominal:RESC3216X65" H 5350 3450 60  0001 C CNN
F 3 "" H 5350 3450 60  0000 C CNN
F 4 "Panasonic" H 5350 3450 60  0001 C CNN "Manuf"
F 5 "ERJ8CWFR020V" H 5350 3450 60  0001 C CNN "MPN"
F 6 "1W 50ppm" H 5350 3450 60  0001 C CNN "Notes"
	1    5350 3450
	0    1    1    0   
$EndComp
Text GLabel 5600 2900 2    50   Output ~ 0
VBATIN+
Text GLabel 5600 3000 2    50   Output ~ 0
VBATIN-
$Comp
L XU4_5V #PWR0139
U 1 1 564F7B08
P 13550 7300
F 0 "#PWR0139" H 13550 7150 50  0001 C CNN
F 1 "XU4_5V" H 13550 7440 50  0000 C CNN
F 2 "" H 13550 7300 60  0000 C CNN
F 3 "" H 13550 7300 60  0000 C CNN
	1    13550 7300
	1    0    0    -1  
$EndComp
Text GLabel 11800 7400 0    50   Input ~ 0
VBATIN+
Text GLabel 11800 7300 0    50   Input ~ 0
VBATIN-
$Comp
L Jumper_NO_Small JP5
U 1 1 564F963B
P 6150 3450
F 0 "JP5" H 6150 3530 50  0000 C CNN
F 1 "Jumper_NO_Small" H 6160 3390 50  0001 C CNN
F 2 "conn-test:JUMPER-SOLDER-3mm" H 6150 3450 60  0001 C CNN
F 3 "" H 6150 3450 60  0000 C CNN
	1    6150 3450
	-1   0    0    1   
$EndComp
$Comp
L Jumper_NO_Small JP4
U 1 1 564F9752
P 6100 6150
F 0 "JP4" H 6100 6250 50  0000 C CNN
F 1 "Jumper_NO_Small" H 6110 6090 50  0001 C CNN
F 2 "conn-test:JUMPER-SOLDER-3mm" H 6100 6150 60  0001 C CNN
F 3 "" H 6100 6150 60  0000 C CNN
	1    6100 6150
	-1   0    0    1   
$EndComp
$Comp
L Jumper_NO_Small JP6
U 1 1 564F986A
P 11100 3400
F 0 "JP6" H 11100 3480 50  0000 C CNN
F 1 "Jumper_NO_Small" H 11110 3340 50  0001 C CNN
F 2 "conn-test:JUMPER-SOLDER-3mm" H 11100 3400 60  0001 C CNN
F 3 "" H 11100 3400 60  0000 C CNN
	1    11100 3400
	1    0    0    -1  
$EndComp
$Comp
L Jumper_NO_Small JP7
U 1 1 564F9983
P 11100 6150
F 0 "JP7" H 11100 6230 50  0000 C CNN
F 1 "Jumper_NO_Small" H 11110 6090 50  0001 C CNN
F 2 "conn-test:JUMPER-SOLDER-3mm" H 11100 6150 60  0001 C CNN
F 3 "" H 11100 6150 60  0000 C CNN
	1    11100 6150
	1    0    0    -1  
$EndComp
$Comp
L NCP4625HSN12T1G U27
U 1 1 564FC5F4
P 4300 9650
F 0 "U27" H 4400 9250 50  0000 C CNN
F 1 "NCP4625HSN12T1G" H 4300 9700 50  0000 C CNN
F 2 "smd-semi:SOT-23-5" H 4300 9700 50  0001 C CNN
F 3 "" H 4300 9700 50  0000 C CNN
F 4 "On Semiconductor" H 4300 9650 60  0001 C CNN "Manuf"
F 5 "NCP4625HSN12T1G" H 4300 9650 60  0001 C CNN "MPN"
	1    4300 9650
	1    0    0    -1  
$EndComp
$Comp
L AP2401MP-13 U33
U 1 1 565C5900
P 4250 3000
F 0 "U33" H 4350 2300 60  0000 C CNN
F 1 "AP2401MP-13" H 4250 3050 60  0000 C CNN
F 2 "IPC7351-Nominal:SOP65P490X110-9B" H 4250 3050 60  0001 C CNN
F 3 "" H 4250 3050 60  0000 C CNN
F 4 "Diodes Incorporated" H 4250 3000 60  0001 C CNN "Manuf"
F 5 "AP2401MP" H 4250 3000 60  0001 C CNN "MPN"
	1    4250 3000
	1    0    0    -1  
$EndComp
$Comp
L AP2401MP-13 U34
U 1 1 565C5DE9
P 4250 4250
F 0 "U34" H 4350 3550 60  0000 C CNN
F 1 "AP2401MP-13" H 4250 4300 60  0000 C CNN
F 2 "IPC7351-Nominal:SOP65P490X110-9B" H 4250 4300 60  0001 C CNN
F 3 "" H 4250 4300 60  0000 C CNN
F 4 "Diodes Incorporated" H 4250 4250 60  0001 C CNN "Manuf"
F 5 "AP2401MP" H 4250 4250 60  0001 C CNN "MPN"
	1    4250 4250
	1    0    0    -1  
$EndComp
$Comp
L C_Small C68
U 1 1 565C6A57
P 3100 3800
F 0 "C68" H 3110 3870 50  0000 L CNN
F 1 "100n" H 3110 3720 50  0000 L CNN
F 2 "IPC7351-Nominal:CAPC1608X90" H 3100 3800 60  0001 C CNN
F 3 "" H 3100 3800 60  0000 C CNN
F 4 "Cap 0603 X7R 10%" H 3100 3800 60  0001 C CNN "MPN"
	1    3100 3800
	1    0    0    -1  
$EndComp
$Comp
L GND #PWR0140
U 1 1 565C6D58
P 3100 4050
F 0 "#PWR0140" H 3100 3800 50  0001 C CNN
F 1 "GND" H 3100 3900 50  0000 C CNN
F 2 "" H 3100 4050 60  0000 C CNN
F 3 "" H 3100 4050 60  0000 C CNN
	1    3100 4050
	1    0    0    -1  
$EndComp
$Comp
L C_Small C69
U 1 1 565C72D5
P 5000 3800
F 0 "C69" H 5010 3870 50  0000 L CNN
F 1 "100n" H 5010 3720 50  0000 L CNN
F 2 "IPC7351-Nominal:CAPC1608X90" H 5000 3800 60  0001 C CNN
F 3 "" H 5000 3800 60  0000 C CNN
F 4 "Cap 0603 X7R 10%" H 5000 3800 60  0001 C CNN "MPN"
	1    5000 3800
	1    0    0    -1  
$EndComp
$Comp
L GND #PWR0141
U 1 1 565C7418
P 5000 4050
F 0 "#PWR0141" H 5000 3800 50  0001 C CNN
F 1 "GND" H 5000 3900 50  0000 C CNN
F 2 "" H 5000 4050 60  0000 C CNN
F 3 "" H 5000 4050 60  0000 C CNN
	1    5000 4050
	1    0    0    -1  
$EndComp
$Comp
L GND #PWR0142
U 1 1 565C8AAE
P 4250 3950
F 0 "#PWR0142" H 4250 3700 50  0001 C CNN
F 1 "GND" H 4250 3800 50  0000 C CNN
F 2 "" H 4250 3950 60  0000 C CNN
F 3 "" H 4250 3950 60  0000 C CNN
	1    4250 3950
	1    0    0    -1  
$EndComp
$Comp
L GND #PWR0143
U 1 1 565C8F93
P 4250 5200
F 0 "#PWR0143" H 4250 4950 50  0001 C CNN
F 1 "GND" H 4250 5050 50  0000 C CNN
F 2 "" H 4250 5200 60  0000 C CNN
F 3 "" H 4250 5200 60  0000 C CNN
	1    4250 5200
	1    0    0    -1  
$EndComp
$Comp
L R_Small R48
U 1 1 565CA170
P 3500 3250
F 0 "R48" H 3530 3270 50  0000 L CNN
F 1 "10k" H 3530 3210 50  0000 L CNN
F 2 "IPC7351-Nominal:RESC1608X50" H 3500 3250 60  0001 C CNN
F 3 "" H 3500 3250 60  0000 C CNN
F 4 "Res 0603 1%" H 3500 3250 60  0001 C CNN "MPN"
	1    3500 3250
	1    0    0    -1  
$EndComp
$Comp
L GND #PWR0144
U 1 1 565CBB22
P 3500 5200
F 0 "#PWR0144" H 3500 4950 50  0001 C CNN
F 1 "GND" H 3500 5050 50  0000 C CNN
F 2 "" H 3500 5200 60  0000 C CNN
F 3 "" H 3500 5200 60  0000 C CNN
	1    3500 5200
	1    0    0    -1  
$EndComp
$Comp
L R_Small R86
U 1 1 565CE9C0
P 3650 3250
F 0 "R86" H 3680 3270 50  0000 L CNN
F 1 "10k" H 3680 3210 50  0000 L CNN
F 2 "IPC7351-Nominal:RESC1608X50" H 3650 3250 60  0001 C CNN
F 3 "" H 3650 3250 60  0000 C CNN
F 4 "Res 0603 1%" H 3650 3250 60  0001 C CNN "MPN"
	1    3650 3250
	1    0    0    -1  
$EndComp
Text GLabel 4000 5600 2    50   Output ~ 0
overload
Text Notes 2450 5000 0    60   ~ 0
XU4 power switch
$Comp
L LD1117S33TR U26
U 1 1 565D584D
P 2200 9500
F 0 "U26" H 2200 9500 60  0000 C CNN
F 1 "LD1117S33TR" H 2200 9600 60  0000 C CNN
F 2 "smd-semi:SOT-223" H 2200 9500 60  0001 C CNN
F 3 "" H 2200 9500 60  0000 C CNN
F 4 "STMicroelectronics" H 2200 9500 60  0001 C CNN "Manuf"
F 5 "LD1117S33TR" H 2200 9500 60  0001 C CNN "MPN"
	1    2200 9500
	1    0    0    -1  
$EndComp
$Comp
L R_Small R35
U 1 1 565E0B8E
P 2050 4250
F 0 "R35" V 2125 4200 50  0000 L CNN
F 1 "0R" V 1975 4200 50  0000 L CNN
F 2 "IPC7351-Nominal:RESC1608X50" H 2050 4250 60  0001 C CNN
F 3 "" H 2050 4250 60  0000 C CNN
F 4 "Res 0603 1%" H 2050 4250 60  0001 C CNN "MPN"
	1    2050 4250
	0    1    1    0   
$EndComp
Wire Wire Line
	9100 3050 9100 3550
Wire Wire Line
	9100 3050 8800 3050
Wire Wire Line
	8200 3050 7900 3050
Wire Wire Line
	7900 3050 7900 3450
Wire Wire Line
	6250 3450 8000 3450
Wire Wire Line
	9000 3450 9100 3450
Connection ~ 9100 3450
Wire Wire Line
	10100 4100 10100 4400
Wire Wire Line
	10500 4100 10500 4400
Wire Wire Line
	10300 4100 10300 4400
Wire Wire Line
	10100 3750 10100 3900
Connection ~ 10100 3750
Wire Wire Line
	10300 3750 10300 3900
Connection ~ 10300 3750
Wire Wire Line
	10500 3750 10500 3900
Connection ~ 10500 3750
Wire Wire Line
	9100 3550 9000 3550
Wire Wire Line
	9000 3850 9100 3850
Wire Wire Line
	9100 3850 9100 3750
Wire Wire Line
	9000 3750 10900 3750
Connection ~ 9100 3750
Wire Wire Line
	9600 3800 9600 3750
Connection ~ 9600 3750
Wire Wire Line
	9000 4050 9600 4050
Wire Wire Line
	9600 4000 9600 4100
Connection ~ 9600 4050
Wire Wire Line
	9600 4300 9600 4400
Wire Wire Line
	8000 4250 7950 4250
Wire Wire Line
	7950 4250 7950 4400
Wire Wire Line
	8000 4050 7750 4050
Wire Wire Line
	7750 4050 7750 4100
Wire Wire Line
	7750 4300 7750 4400
Wire Wire Line
	6850 3450 6850 3900
Connection ~ 7900 3450
Wire Wire Line
	6850 4100 6850 4400
Connection ~ 6850 3450
Wire Wire Line
	1800 3450 2600 3450
Wire Wire Line
	1800 3550 2950 3550
Wire Wire Line
	2950 3550 2950 4400
Wire Wire Line
	1700 4050 2600 4050
Connection ~ 2950 4250
Wire Wire Line
	1700 4250 1950 4250
Wire Wire Line
	2150 4250 2950 4250
Wire Wire Line
	6600 3900 6600 3450
Connection ~ 6600 3450
Wire Wire Line
	6600 4100 6600 4400
Wire Wire Line
	7500 3650 8000 3650
Wire Wire Line
	2100 1100 3300 1100
Wire Wire Line
	2700 1550 2700 1750
Wire Wire Line
	2700 1350 2700 1100
Connection ~ 2700 1100
Wire Wire Line
	4300 1500 4500 1500
Wire Wire Line
	4500 1500 4500 1750
Wire Wire Line
	4300 1300 4800 1300
Wire Wire Line
	4800 1300 4800 1450
Wire Wire Line
	4800 1650 4800 1750
Wire Wire Line
	3000 1400 3000 1500
Wire Wire Line
	3000 1500 3050 1500
Wire Wire Line
	3250 1500 3300 1500
Wire Wire Line
	3000 1200 3000 1100
Connection ~ 3000 1100
Wire Wire Line
	4300 1100 5350 1100
Wire Wire Line
	5350 1100 5350 2500
Wire Wire Line
	5350 2500 2050 2500
Wire Wire Line
	2050 2500 2050 3450
Connection ~ 2050 3450
Wire Notes Line
	1500 850  1500 2100
Wire Notes Line
	1500 2100 5600 2100
Wire Notes Line
	5600 2100 5600 850 
Wire Notes Line
	5600 850  1500 850 
Wire Notes Line
	2250 3300 2250 4150
Wire Notes Line
	2250 4150 2550 4150
Wire Notes Line
	2550 4150 2550 3300
Wire Notes Line
	2550 3300 2250 3300
Wire Wire Line
	7200 4350 7200 4400
Wire Wire Line
	7200 4050 7200 4150
Wire Wire Line
	7200 3750 7200 3850
Wire Wire Line
	7200 3550 7200 3450
Connection ~ 7200 3450
Wire Wire Line
	7200 3800 7500 3800
Wire Wire Line
	7500 3800 7500 3650
Connection ~ 7200 3800
Wire Wire Line
	7200 4100 7600 4100
Wire Wire Line
	7600 4100 7600 3850
Wire Wire Line
	7600 3850 8000 3850
Connection ~ 7200 4100
Wire Notes Line
	7050 3350 7050 4600
Wire Notes Line
	7050 4600 7450 4600
Wire Notes Line
	7450 4600 7450 3350
Wire Notes Line
	7450 3350 7050 3350
Wire Wire Line
	10900 3400 11000 3400
Wire Wire Line
	11200 3400 12100 3400
Wire Wire Line
	12300 3400 13150 3400
Wire Wire Line
	13000 4350 13000 3500
Wire Wire Line
	13000 3500 13150 3500
Wire Wire Line
	12450 5600 12500 5600
Connection ~ 12450 3400
Wire Wire Line
	12450 5350 13550 5350
Wire Wire Line
	13550 5350 13550 5600
Connection ~ 12450 5350
Wire Wire Line
	12500 5900 11950 5900
Connection ~ 11950 3400
Wire Wire Line
	12300 6100 12500 6100
Connection ~ 12450 5600
Wire Wire Line
	12500 6400 12450 6400
Wire Wire Line
	12450 6400 12450 6650
Wire Wire Line
	12900 3250 12900 3400
Connection ~ 12900 3400
Wire Wire Line
	11750 6400 11750 6350
Wire Wire Line
	11750 6600 11750 6650
Connection ~ 12450 6100
Wire Wire Line
	11950 6100 12100 6100
Connection ~ 11950 5900
Wire Wire Line
	11950 5850 11950 6100
Wire Wire Line
	12450 6100 12450 5850
Wire Wire Line
	12450 3400 12450 5650
Wire Wire Line
	11950 3400 11950 5650
Wire Wire Line
	7650 6650 7650 6450
Wire Wire Line
	7650 6450 7850 6450
Wire Wire Line
	9250 6650 9250 6450
Wire Wire Line
	9250 6450 9050 6450
Wire Wire Line
	9050 6150 11000 6150
Wire Wire Line
	6200 6150 7850 6150
Wire Wire Line
	6000 6150 5850 6150
Wire Wire Line
	5850 6150 5850 3450
Connection ~ 5850 3450
Wire Wire Line
	11200 6150 11300 6150
Wire Wire Line
	11300 6150 11300 3400
Connection ~ 11300 3400
Wire Notes Line
	7300 5650 7300 7200
Wire Notes Line
	7300 7200 9700 7200
Wire Notes Line
	9700 7200 9700 5650
Wire Notes Line
	9700 5650 7350 5650
Wire Wire Line
	3050 6600 3050 6900
Wire Wire Line
	3050 7100 3050 7400
Wire Wire Line
	1800 6750 3050 6750
Connection ~ 3050 6750
Wire Wire Line
	3050 6100 3050 6400
Wire Wire Line
	1800 6000 2600 6000
Wire Wire Line
	2600 6000 2600 6400
Wire Wire Line
	2600 6600 2600 6750
Connection ~ 2600 6750
Wire Notes Line
	2350 6300 2350 6650
Wire Notes Line
	2350 6650 3250 6650
Wire Notes Line
	3250 6650 3250 6300
Wire Notes Line
	3250 6300 2350 6300
Wire Wire Line
	8050 1650 8300 1650
Wire Wire Line
	8300 1600 8300 1900
Wire Wire Line
	8050 1350 8300 1350
Wire Wire Line
	8300 1150 8300 1400
Wire Wire Line
	11150 1200 11150 1300
Wire Wire Line
	11750 1150 11750 1300
Wire Wire Line
	12350 1150 12350 1300
Wire Wire Line
	9350 1650 9600 1650
Wire Wire Line
	9600 1600 9600 1900
Wire Wire Line
	9350 1350 9600 1350
Wire Wire Line
	9600 1150 9600 1400
Wire Wire Line
	12950 1150 12950 1300
Wire Wire Line
	15150 5800 15300 5800
Wire Wire Line
	15150 5900 15300 5900
Wire Wire Line
	2200 10200 2200 10250
Wire Wire Line
	1600 9500 1600 9900
Wire Wire Line
	1600 9700 1700 9700
Wire Wire Line
	2700 9700 2800 9700
Wire Wire Line
	2800 9500 2800 9900
Wire Wire Line
	1600 10100 1600 10250
Wire Wire Line
	2800 10100 2800 10250
Connection ~ 1600 9700
Connection ~ 2800 9700
Wire Wire Line
	3700 9500 3700 9900
Wire Wire Line
	3700 9700 3850 9700
Connection ~ 3700 9700
Wire Wire Line
	3700 10100 3700 10250
Wire Wire Line
	4300 10200 4300 10250
Wire Wire Line
	4750 9700 4950 9700
Wire Wire Line
	4950 9500 4950 9900
Wire Wire Line
	4950 10100 4950 10250
Connection ~ 4950 9700
Wire Wire Line
	8700 9850 8900 9850
Wire Wire Line
	8900 9750 8900 10150
Wire Wire Line
	8900 9950 8700 9950
Connection ~ 8900 9850
Wire Wire Line
	8900 10050 8700 10050
Connection ~ 8900 9950
Wire Wire Line
	8900 10150 8700 10150
Connection ~ 8900 10050
Wire Wire Line
	6900 8650 6900 9550
Wire Wire Line
	6900 8650 7100 8650
Wire Wire Line
	7100 8750 6900 8750
Connection ~ 6900 8750
Wire Wire Line
	7100 8850 6900 8850
Connection ~ 6900 8850
Wire Wire Line
	7100 8950 6900 8950
Connection ~ 6900 8950
Wire Wire Line
	7100 9050 6900 9050
Connection ~ 6900 9050
Wire Wire Line
	7100 9150 6900 9150
Connection ~ 6900 9150
Wire Wire Line
	7100 9250 6900 9250
Connection ~ 6900 9250
Wire Wire Line
	7100 9350 6900 9350
Connection ~ 6900 9350
Wire Wire Line
	7100 9450 6900 9450
Connection ~ 6900 9450
Wire Wire Line
	6300 9500 6300 9600
Wire Wire Line
	6300 9800 6300 9900
Wire Wire Line
	6300 9850 6900 9850
Wire Wire Line
	6500 9850 6500 9900
Connection ~ 6300 9850
Wire Wire Line
	6300 10100 6300 10150
Wire Wire Line
	6300 10150 7100 10150
Wire Wire Line
	6500 10100 6500 10150
Connection ~ 6500 10150
Wire Wire Line
	6900 9850 6900 10050
Wire Wire Line
	6900 10050 7100 10050
Connection ~ 6500 9850
Wire Wire Line
	8700 8750 8900 8750
Wire Wire Line
	9500 8650 9500 8750
Wire Wire Line
	9500 8750 9300 8750
Wire Wire Line
	9300 9900 9300 9850
Wire Wire Line
	9300 9850 9900 9850
Wire Wire Line
	9900 9750 9900 9900
Wire Wire Line
	9700 9900 9700 9850
Connection ~ 9700 9850
Wire Wire Line
	9500 9900 9500 9850
Connection ~ 9500 9850
Wire Wire Line
	9300 10100 9300 10250
Wire Wire Line
	9300 10150 9900 10150
Wire Wire Line
	9900 10150 9900 10100
Wire Wire Line
	9500 10100 9500 10150
Connection ~ 9500 10150
Wire Wire Line
	9700 10100 9700 10150
Connection ~ 9700 10150
Connection ~ 9300 10150
Connection ~ 9900 9850
Wire Notes Line
	10600 7900 10600 10700
Wire Notes Line
	10600 10700 1000 10700
Wire Notes Line
	1000 10700 1000 7900
Wire Notes Line
	1000 7900 10600 7900
Wire Wire Line
	6500 6100 6500 6150
Connection ~ 6500 6150
Wire Wire Line
	8850 8700 8850 8750
Connection ~ 8850 8750
Wire Wire Line
	6650 9800 6650 9850
Connection ~ 6650 9850
Wire Wire Line
	6800 10100 6800 10150
Connection ~ 6800 10150
Wire Wire Line
	10900 3750 10900 3400
Wire Wire Line
	1700 1700 2400 1700
Wire Wire Line
	2400 1500 2400 1750
Wire Wire Line
	2100 1500 2400 1500
Connection ~ 2400 1700
Wire Wire Line
	12450 7500 12500 7500
Wire Wire Line
	12500 7800 11950 7800
Wire Wire Line
	12300 8000 12500 8000
Connection ~ 12450 7500
Wire Wire Line
	12500 8300 12450 8300
Wire Wire Line
	12450 8300 12450 8550
Wire Wire Line
	11750 8300 11750 8250
Wire Wire Line
	11750 8500 11750 8550
Connection ~ 13550 7500
Connection ~ 12450 8000
Wire Wire Line
	11950 8000 12100 8000
Connection ~ 11950 7800
Wire Wire Line
	11950 7750 11950 8000
Wire Wire Line
	12450 8000 12450 7750
Wire Wire Line
	4800 3450 5250 3450
Wire Wire Line
	5450 3450 6050 3450
Wire Wire Line
	5600 2900 5200 2900
Wire Wire Line
	5200 2900 5200 3450
Connection ~ 5200 3450
Wire Wire Line
	5600 3000 5500 3000
Wire Wire Line
	5500 3000 5500 3450
Connection ~ 5500 3450
Wire Wire Line
	13550 7300 13550 8200
Wire Wire Line
	12450 7300 12450 7550
Wire Wire Line
	12450 7300 11800 7300
Wire Wire Line
	11950 7550 11950 7400
Wire Wire Line
	11950 7400 11800 7400
Wire Wire Line
	3850 9800 3800 9800
Wire Wire Line
	3800 9800 3800 9700
Connection ~ 3800 9700
Wire Wire Line
	3350 3100 3800 3100
Wire Wire Line
	3350 4350 3800 4350
Connection ~ 3350 3450
Wire Wire Line
	3100 3700 3100 3450
Connection ~ 3100 3450
Wire Wire Line
	3100 3900 3100 4050
Wire Wire Line
	5000 3900 5000 4050
Connection ~ 5000 3450
Wire Wire Line
	4800 3100 4800 4450
Wire Wire Line
	4800 4350 4700 4350
Wire Wire Line
	4700 3100 4800 3100
Connection ~ 4800 3450
Wire Wire Line
	5000 3450 5000 3700
Wire Wire Line
	4700 3500 4700 3900
Wire Wire Line
	4700 3900 4250 3900
Wire Wire Line
	4250 3850 4250 3950
Connection ~ 4250 3900
Wire Wire Line
	4250 5100 4250 5200
Wire Wire Line
	4700 4750 4700 5150
Wire Wire Line
	4700 5150 4250 5150
Connection ~ 4250 5150
Wire Wire Line
	3800 3400 3500 3400
Wire Wire Line
	3500 3350 3500 4700
Wire Wire Line
	3500 5150 3500 5200
Wire Wire Line
	4700 3200 4800 3200
Connection ~ 4800 3200
Wire Wire Line
	3800 3200 3750 3200
Wire Wire Line
	3750 3200 3750 3100
Connection ~ 3750 3100
Wire Wire Line
	3800 4450 3750 4450
Wire Wire Line
	3750 4450 3750 4350
Connection ~ 3750 4350
Wire Wire Line
	4800 4450 4700 4450
Connection ~ 4800 4350
Wire Wire Line
	3800 3500 3650 3500
Wire Wire Line
	3650 3350 3650 5600
Wire Wire Line
	3650 4750 3800 4750
Wire Wire Line
	3650 3150 3650 3100
Connection ~ 3650 3100
Wire Wire Line
	3500 3150 3500 3100
Connection ~ 3500 3100
Connection ~ 3500 3400
Connection ~ 3650 3500
Wire Wire Line
	3350 3000 3350 4350
Wire Wire Line
	3800 4650 3500 4650
Connection ~ 3500 4650
Wire Wire Line
	3650 5600 4000 5600
Connection ~ 3650 4750
Wire Wire Line
	13500 5800 14950 5800
Text GLabel 15300 6850 2    50   Output ~ 0
alert1
Text GLabel 15300 6950 2    50   Output ~ 0
alert2
Wire Wire Line
	13500 6200 14600 6200
Wire Wire Line
	14600 6200 14600 6850
Wire Wire Line
	14600 6850 15300 6850
Wire Wire Line
	15300 6950 14600 6950
Wire Wire Line
	14600 6950 14600 8100
Wire Wire Line
	14600 8100 13500 8100
$Comp
L DIODE D2
U 1 1 565CEAE9
P 9100 8750
F 0 "D2" H 9100 8850 40  0000 C CNN
F 1 "DIODE" H 9100 8650 40  0000 C CNN
F 2 "smd-semi:LED-0603" H 9100 8750 60  0001 C CNN
F 3 "" H 9100 8750 60  0000 C CNN
F 4 "Bourns" H 9100 8750 60  0001 C CNN "Manuf"
F 5 "CD0603-B0230" H 9100 8750 60  0001 C CNN "MPN"
	1    9100 8750
	-1   0    0    1   
$EndComp
$Comp
L PWR_FLAG #FLG0145
U 1 1 565D278E
P 3350 3000
F 0 "#FLG0145" H 3350 3095 30  0001 C CNN
F 1 "PWR_FLAG" H 3350 3180 30  0000 C CNN
F 2 "" H 3350 3000 60  0000 C CNN
F 3 "" H 3350 3000 60  0000 C CNN
	1    3350 3000
	1    0    0    -1  
$EndComp
Connection ~ 3350 3100
Wire Wire Line
	13500 5900 14950 5900
Wire Wire Line
	13500 7700 14750 7700
Wire Wire Line
	14750 7700 14750 5800
Connection ~ 14750 5800
Wire Wire Line
	13500 7800 14850 7800
Wire Wire Line
	14850 7800 14850 5900
Connection ~ 14850 5900
Wire Wire Line
	13550 5600 13500 5600
Wire Wire Line
	13500 6300 13550 6300
Wire Wire Line
	13550 6300 13550 6650
Wire Wire Line
	13500 6400 13550 6400
Connection ~ 13550 6400
Wire Wire Line
	13500 7500 13550 7500
Wire Wire Line
	13550 8200 13500 8200
Wire Wire Line
	13500 8300 13550 8300
Wire Wire Line
	13550 8300 13550 8550
$Comp
L C_Small C1
U 1 1 565DF6FC
P 8300 1500
F 0 "C1" H 8310 1570 50  0000 L CNN
F 1 "22u" H 8310 1420 50  0000 L CNN
F 2 "IPC7351-Nominal:CAPC2012X140" H 8300 1500 60  0001 C CNN
F 3 "" H 8300 1500 60  0000 C CNN
F 4 "Cap 0805 X5R 20% 6.3V" H 8300 1500 60  0001 C CNN "MPN"
	1    8300 1500
	1    0    0    -1  
$EndComp
Connection ~ 8300 1350
Connection ~ 8300 1650
$Comp
L C_Small C2
U 1 1 565DFB54
P 9600 1500
F 0 "C2" H 9610 1570 50  0000 L CNN
F 1 "22u" H 9610 1420 50  0000 L CNN
F 2 "IPC7351-Nominal:CAPC2012X140" H 9600 1500 60  0001 C CNN
F 3 "" H 9600 1500 60  0000 C CNN
F 4 "Cap 0805 X5R 20% 6.3V" H 9600 1500 60  0001 C CNN "MPN"
	1    9600 1500
	1    0    0    -1  
$EndComp
Connection ~ 9600 1350
Connection ~ 9600 1650
NoConn ~ 4550 8600
Wire Wire Line
	2700 9800 2800 9800
Connection ~ 2800 9800
$Comp
L C_Small C25
U 1 1 568AA054
P 5100 1450
F 0 "C25" H 5110 1520 50  0000 L CNN
F 1 "4u7" H 5110 1370 50  0000 L CNN
F 2 "IPC7351-Nominal:CAPC1608X90" H 5100 1450 60  0001 C CNN
F 3 "" H 5100 1450 60  0000 C CNN
F 4 "Cap 0603 X5R 20% 6.3V" H 5100 1450 60  0001 C CNN "MPN"
	1    5100 1450
	1    0    0    -1  
$EndComp
$Comp
L GND #PWR0146
U 1 1 568AA144
P 5100 1750
F 0 "#PWR0146" H 5100 1500 50  0001 C CNN
F 1 "GND" H 5100 1600 50  0000 C CNN
F 2 "" H 5100 1750 60  0000 C CNN
F 3 "" H 5100 1750 60  0000 C CNN
	1    5100 1750
	1    0    0    -1  
$EndComp
Wire Wire Line
	5100 1550 5100 1750
Wire Wire Line
	5100 1350 5100 1100
Connection ~ 5100 1100
$Comp
L ICE40HX1KTQ144 U6
U 6 1 568B0B8C
P 7900 8550
F 0 "U6" H 7900 8750 60  0000 C CNN
F 1 "ICE40HX1KTQ144" H 7900 8650 60  0000 C CNN
F 2 "" H 7900 8650 60  0000 C CNN
F 3 "" H 7900 8650 60  0000 C CNN
F 4 "Lattice Semiconductor" H 8000 8850 60  0001 C CNN "Manuf"
F 5 "ICE40HX1K-TQ144" H 8100 8950 60  0001 C CNN "MPN"
	6    7900 8550
	1    0    0    -1  
$EndComp
$Comp
L CONN_3 JP2
U 1 1 5694EC0A
P 2200 3750
F 0 "JP2" H 2200 3550 50  0000 C CNN
F 1 "CONN_3" V 2250 3750 40  0000 C CNN
F 2 "conn-100mil:CONN-100MIL-M-1x3" H 2200 3750 60  0001 C CNN
F 3 "" H 2200 3750 60  0000 C CNN
	1    2200 3750
	-1   0    0    -1  
$EndComp
Wire Wire Line
	2600 3450 2600 3650
Wire Wire Line
	2600 4050 2600 3850
Wire Wire Line
	2550 3750 2750 3750
Wire Wire Line
	2750 3750 2750 3450
Wire Wire Line
	2750 3450 3350 3450
Wire Wire Line
	2600 3650 2550 3650
Wire Wire Line
	2600 3850 2550 3850
Text GLabel 13200 2100 0    50   Input ~ 0
VBATIN-
$Comp
L R_Small R2
U 1 1 56953497
P 13600 2100
F 0 "R2" V 13650 2200 50  0000 L CNN
F 1 "0R" V 13600 2050 50  0000 L CNN
F 2 "IPC7351-Nominal:RESC1608X50" H 13600 2100 60  0001 C CNN
F 3 "" H 13600 2100 60  0000 C CNN
F 4 "Res 0603 1%" H 13600 2100 60  0001 C CNN "MPN"
	1    13600 2100
	0    1    1    0   
$EndComp
$Comp
L R_Small R6
U 1 1 56953830
P 13600 2200
F 0 "R6" V 13650 2300 50  0000 L CNN
F 1 "0R" V 13600 2150 50  0000 L CNN
F 2 "IPC7351-Nominal:RESC1608X50" H 13600 2200 60  0001 C CNN
F 3 "" H 13600 2200 60  0000 C CNN
F 4 "Res 0603 1%" H 13600 2200 60  0001 C CNN "MPN"
	1    13600 2200
	0    1    1    0   
$EndComp
Wire Wire Line
	13000 3400 13000 2200
Wire Wire Line
	13000 2200 13500 2200
Connection ~ 13000 3400
Wire Wire Line
	13200 2100 13500 2100
Wire Wire Line
	13700 2100 14400 2100
Wire Wire Line
	14100 2100 14100 2300
Wire Wire Line
	14100 2200 13700 2200
Text GLabel 14400 2100 2    50   Input ~ 0
LEDVCC
Connection ~ 14100 2100
Text Notes 13450 2000 0    50   ~ 0
Fit R2 for direct LED supply from battery\nFir R6 for 5v LED supply
$Comp
L PWR_FLAG #FLG0147
U 1 1 56957A41
P 14100 2300
F 0 "#FLG0147" H 14100 2395 50  0001 C CNN
F 1 "PWR_FLAG" H 14100 2480 50  0000 C CNN
F 2 "" H 14100 2300 60  0000 C CNN
F 3 "" H 14100 2300 60  0000 C CNN
	1    14100 2300
	1    0    0    1   
$EndComp
Connection ~ 14100 2200
$EndSCHEMATC
