EESchema Schematic File Version 2
LIBS:shim1
LIBS:shim1_pcb-rescue
LIBS:power
LIBS:device
LIBS:transistors
LIBS:conn
LIBS:linear
LIBS:regul
LIBS:74xx
LIBS:cmos4000
LIBS:adc-dac
LIBS:memory
LIBS:xilinx
LIBS:special
LIBS:microcontrollers
LIBS:dsp
LIBS:microchip
LIBS:analog_switches
LIBS:motorola
LIBS:texas
LIBS:intel
LIBS:audio
LIBS:interface
LIBS:digital-audio
LIBS:philips
LIBS:display
LIBS:cypress
LIBS:siliconi
LIBS:opto
LIBS:atmel
LIBS:contrib
LIBS:valves
LIBS:shim1_pcb-cache
EELAYER 25 0
EELAYER END
$Descr A3 16535 11693
encoding utf-8
Sheet 3 5
Title ""
Date ""
Rev ""
Comp ""
Comment1 ""
Comment2 ""
Comment3 ""
Comment4 ""
$EndDescr
$Comp
L FT2232H U5
U 1 1 56420149
P 6700 3900
F 0 "U5" H 7600 3950 60  0000 C CNN
F 1 "FT2232H" H 6700 2150 60  0000 C CNN
F 2 "IPC7351-Nominal:QFP50P1200X1200X160-64" H 7400 4000 60  0001 C CNN
F 3 "" H 7400 4000 60  0000 C CNN
F 4 "FTDI" H 6700 3900 60  0001 C CNN "Manuf"
F 5 "FT2232HL" H 6700 3900 60  0001 C CNN "MPN"
	1    6700 3900
	1    0    0    -1  
$EndComp
$Comp
L OSC_12MHZ U4
U 1 1 564207A2
P 3100 7350
F 0 "U4" H 3100 7350 60  0000 C CNN
F 1 "OSC_12MHZ" H 3100 6950 60  0000 C CNN
F 2 "IPC7351-Nominal:OSCSC190P250X320X100-4" H 3100 6850 60  0001 C CNN
F 3 "" H 3100 7350 60  0000 C CNN
F 4 "Silicon Labs" H 3100 7350 60  0001 C CNN "Manuf"
F 5 "501HCA12M0000CAF" H 3100 7350 60  0001 C CNN "MPN"
F 6 "Any osc 30ppm" H 3100 7350 60  0001 C CNN "Notes"
	1    3100 7350
	1    0    0    -1  
$EndComp
$Comp
L GND #PWR09
U 1 1 56420907
P 2550 8250
F 0 "#PWR09" H 2550 8000 50  0001 C CNN
F 1 "GND" H 2550 8100 50  0000 C CNN
F 2 "" H 2550 8250 60  0000 C CNN
F 3 "" H 2550 8250 60  0000 C CNN
	1    2550 8250
	1    0    0    -1  
$EndComp
$Comp
L Csmall C5
U 1 1 56420950
P 2250 6350
F 0 "C5" H 2275 6450 50  0000 L CNN
F 1 "100n" H 2275 6250 50  0000 L CNN
F 2 "IPC7351-Nominal:CAPC1608X90" H 2288 6200 30  0001 C CNN
F 3 "" H 2250 6350 60  0000 C CNN
F 4 "Cap 0603 X7R 10%" H 2250 6350 60  0001 C CNN "MPN"
	1    2250 6350
	1    0    0    -1  
$EndComp
$Comp
L GND #PWR010
U 1 1 564209FB
P 2250 6500
F 0 "#PWR010" H 2250 6250 50  0001 C CNN
F 1 "GND" H 2250 6350 50  0000 C CNN
F 2 "" H 2250 6500 60  0000 C CNN
F 3 "" H 2250 6500 60  0000 C CNN
	1    2250 6500
	1    0    0    -1  
$EndComp
$Comp
L 93LC56 U3
U 1 1 56420E3E
P 3100 6250
F 0 "U3" H 3100 6250 60  0000 C CNN
F 1 "93LC56" H 3100 5650 60  0000 C CNN
F 2 "IPC7351-Nominal:SOIC127P600X173-8" H 3100 6250 60  0001 C CNN
F 3 "" H 3100 6250 60  0000 C CNN
F 4 "Microchip" H 3100 6250 60  0001 C CNN "Manuf"
F 5 "93LC56B-I/SN" H 3100 6250 60  0001 C CNN "MPN"
F 6 "2k 16bit 3v3 EEPROM SOIC narrow body (3.9mm)" H 3100 6250 60  0001 C CNN "Notes"
	1    3100 6250
	-1   0    0    -1  
$EndComp
$Comp
L GND #PWR011
U 1 1 564212C0
P 2550 6850
F 0 "#PWR011" H 2550 6600 50  0001 C CNN
F 1 "GND" H 2550 6700 50  0000 C CNN
F 2 "" H 2550 6850 60  0000 C CNN
F 3 "" H 2550 6850 60  0000 C CNN
	1    2550 6850
	-1   0    0    -1  
$EndComp
$Comp
L Rsmall R13
U 1 1 5642131E
P 4000 6700
F 0 "R13" V 4080 6700 50  0000 C CNN
F 1 "2k2" V 4000 6700 50  0000 C CNN
F 2 "IPC7351-Nominal:RESC1608X50" V 3930 6700 30  0001 C CNN
F 3 "" H 4000 6700 30  0000 C CNN
F 4 "Res 0603 1%" H 4000 6700 60  0001 C CNN "MPN"
	1    4000 6700
	0    -1   1    0   
$EndComp
$Comp
L Rsmall R10
U 1 1 5642153E
P 3650 6150
F 0 "R10" V 3730 6150 50  0000 C CNN
F 1 "10k" V 3650 6150 50  0000 C CNN
F 2 "IPC7351-Nominal:RESC1608X50" V 3580 6150 30  0001 C CNN
F 3 "" H 3650 6150 30  0000 C CNN
F 4 "Res 0603 1%" H 3650 6150 60  0001 C CNN "MPN"
	1    3650 6150
	-1   0    0    -1  
$EndComp
$Comp
L Rsmall R11
U 1 1 5642160F
P 3800 6150
F 0 "R11" V 3880 6150 50  0000 C CNN
F 1 "10k" V 3800 6150 50  0000 C CNN
F 2 "IPC7351-Nominal:RESC1608X50" V 3730 6150 30  0001 C CNN
F 3 "" H 3800 6150 30  0000 C CNN
F 4 "Res 0603 1%" H 3800 6150 60  0001 C CNN "MPN"
	1    3800 6150
	-1   0    0    -1  
$EndComp
$Comp
L Rsmall R12
U 1 1 5642164B
P 3950 6150
F 0 "R12" V 4030 6150 50  0000 C CNN
F 1 "10k" V 3950 6150 50  0000 C CNN
F 2 "IPC7351-Nominal:RESC1608X50" V 3880 6150 30  0001 C CNN
F 3 "" H 3950 6150 30  0000 C CNN
F 4 "Res 0603 1%" H 3950 6150 60  0001 C CNN "MPN"
	1    3950 6150
	-1   0    0    -1  
$EndComp
$Comp
L Csmall C6
U 1 1 564222AC
P 2250 7400
F 0 "C6" H 2275 7500 50  0000 L CNN
F 1 "100n" H 2275 7300 50  0000 L CNN
F 2 "IPC7351-Nominal:CAPC1608X90" H 2288 7250 30  0001 C CNN
F 3 "" H 2250 7400 60  0000 C CNN
F 4 "Cap 0603 X7R 10%" H 2250 7400 60  0001 C CNN "MPN"
	1    2250 7400
	1    0    0    -1  
$EndComp
$Comp
L GND #PWR012
U 1 1 564222B2
P 2250 7550
F 0 "#PWR012" H 2250 7300 50  0001 C CNN
F 1 "GND" H 2250 7400 50  0000 C CNN
F 2 "" H 2250 7550 60  0000 C CNN
F 3 "" H 2250 7550 60  0000 C CNN
	1    2250 7550
	1    0    0    -1  
$EndComp
Text Notes 1100 6650 0    60   ~ 0
16 bit or 8/16 bit, \ndo not use 8 bit only
$Comp
L GND #PWR013
U 1 1 56422390
P 6350 8250
F 0 "#PWR013" H 6350 8000 50  0001 C CNN
F 1 "GND" H 6350 8100 50  0000 C CNN
F 2 "" H 6350 8250 60  0000 C CNN
F 3 "" H 6350 8250 60  0000 C CNN
	1    6350 8250
	1    0    0    -1  
$EndComp
Text Notes 2850 8150 0    60   ~ 0
Any LVCMOS oscillator\nwith <30ppm
$Comp
L GND #PWR014
U 1 1 56422D0E
P 2550 5650
F 0 "#PWR014" H 2550 5400 50  0001 C CNN
F 1 "GND" H 2550 5500 50  0000 C CNN
F 2 "" H 2550 5650 60  0000 C CNN
F 3 "" H 2550 5650 60  0000 C CNN
	1    2550 5650
	-1   0    0    -1  
$EndComp
$Comp
L Rsmall R9
U 1 1 56422D82
P 2200 5600
F 0 "R9" V 2280 5600 50  0000 C CNN
F 1 "0R" V 2200 5600 50  0000 C CNN
F 2 "IPC7351-Nominal:RESC1608X50" V 2130 5600 30  0001 C CNN
F 3 "" H 2200 5600 30  0000 C CNN
F 4 "Res 0603 1%" H 2200 5600 60  0001 C CNN "MPN"
	1    2200 5600
	0    1    -1   0   
$EndComp
$Comp
L VBUS #PWR015
U 1 1 564A5002
P 2550 4800
F 0 "#PWR015" H 2550 4650 50  0001 C CNN
F 1 "VBUS" H 2550 4950 50  0000 C CNN
F 2 "" H 2550 4800 60  0000 C CNN
F 3 "" H 2550 4800 60  0000 C CNN
	1    2550 4800
	1    0    0    -1  
$EndComp
$Comp
L usb_3v3 #PWR016
U 1 1 564A51C4
P 3650 5800
F 0 "#PWR016" H 3650 5650 50  0001 C CNN
F 1 "usb_3v3" H 3650 5940 50  0000 C CNN
F 2 "" H 3650 5800 60  0000 C CNN
F 3 "" H 3650 5800 60  0000 C CNN
	1    3650 5800
	1    0    0    -1  
$EndComp
$Comp
L usb_3v3 #PWR017
U 1 1 564A51FC
P 2550 6200
F 0 "#PWR017" H 2550 6050 50  0001 C CNN
F 1 "usb_3v3" H 2550 6340 50  0000 C CNN
F 2 "" H 2550 6200 60  0000 C CNN
F 3 "" H 2550 6200 60  0000 C CNN
	1    2550 6200
	1    0    0    -1  
$EndComp
$Comp
L usb_3v3 #PWR018
U 1 1 564A5234
P 2250 6200
F 0 "#PWR018" H 2250 6050 50  0001 C CNN
F 1 "usb_3v3" H 2250 6340 50  0000 C CNN
F 2 "" H 2250 6200 60  0000 C CNN
F 3 "" H 2250 6200 60  0000 C CNN
	1    2250 6200
	1    0    0    -1  
$EndComp
$Comp
L usb_3v3 #PWR019
U 1 1 564A526C
P 2250 7250
F 0 "#PWR019" H 2250 7100 50  0001 C CNN
F 1 "usb_3v3" H 2250 7390 50  0000 C CNN
F 2 "" H 2250 7250 60  0000 C CNN
F 3 "" H 2250 7250 60  0000 C CNN
	1    2250 7250
	1    0    0    -1  
$EndComp
$Comp
L usb_3v3 #PWR020
U 1 1 564A52B4
P 3650 7250
F 0 "#PWR020" H 3650 7100 50  0001 C CNN
F 1 "usb_3v3" H 3650 7390 50  0000 C CNN
F 2 "" H 3650 7250 60  0000 C CNN
F 3 "" H 3650 7250 60  0000 C CNN
	1    3650 7250
	1    0    0    -1  
$EndComp
$Comp
L CPsmall C7
U 1 1 564A53FA
P 4600 4400
F 0 "C7" H 4625 4500 50  0000 L CNN
F 1 "10u" H 4625 4300 50  0000 L CNN
F 2 "IPC7351-Nominal:CAPC1608X90" H 4638 4250 30  0001 C CNN
F 3 "" H 4600 4400 60  0000 C CNN
F 4 "Cap 0603 X5R 20% 6.3V" H 4600 4400 60  0001 C CNN "MPN"
	1    4600 4400
	1    0    0    -1  
$EndComp
$Comp
L GND #PWR021
U 1 1 564A5451
P 4600 4550
F 0 "#PWR021" H 4600 4300 50  0001 C CNN
F 1 "GND" H 4600 4400 50  0000 C CNN
F 2 "" H 4600 4550 60  0000 C CNN
F 3 "" H 4600 4550 60  0000 C CNN
	1    4600 4550
	-1   0    0    -1  
$EndComp
$Comp
L usb_1v8 #PWR022
U 1 1 564A57EE
P 4600 3550
F 0 "#PWR022" H 4600 3400 50  0001 C CNN
F 1 "usb_1v8" H 4600 3690 50  0000 C CNN
F 2 "" H 4600 3550 60  0000 C CNN
F 3 "" H 4600 3550 60  0000 C CNN
	1    4600 3550
	1    0    0    -1  
$EndComp
$Comp
L usb_3v3 #PWR023
U 1 1 564A65A3
P 7200 3550
F 0 "#PWR023" H 7200 3400 50  0001 C CNN
F 1 "usb_3v3" H 7200 3690 50  0000 C CNN
F 2 "" H 7200 3550 60  0000 C CNN
F 3 "" H 7200 3550 60  0000 C CNN
	1    7200 3550
	1    0    0    -1  
$EndComp
$Comp
L Csmall C15
U 1 1 564A6651
P 7600 2100
F 0 "C15" H 7625 2200 50  0000 L CNN
F 1 "100n" H 7625 2000 50  0000 L CNN
F 2 "IPC7351-Nominal:CAPC1608X90" H 7638 1950 30  0001 C CNN
F 3 "" H 7600 2100 60  0000 C CNN
F 4 "Cap 0603 X7R 10%" H 7600 2100 60  0001 C CNN "MPN"
	1    7600 2100
	1    0    0    -1  
$EndComp
$Comp
L Csmall C16
U 1 1 564A6727
P 7850 2100
F 0 "C16" H 7875 2200 50  0000 L CNN
F 1 "100n" H 7875 2000 50  0000 L CNN
F 2 "IPC7351-Nominal:CAPC1608X90" H 7888 1950 30  0001 C CNN
F 3 "" H 7850 2100 60  0000 C CNN
F 4 "Cap 0603 X7R 10%" H 7850 2100 60  0001 C CNN "MPN"
	1    7850 2100
	1    0    0    -1  
$EndComp
$Comp
L Csmall C17
U 1 1 564A6772
P 8100 2100
F 0 "C17" H 8125 2200 50  0000 L CNN
F 1 "100n" H 8125 2000 50  0000 L CNN
F 2 "IPC7351-Nominal:CAPC1608X90" H 8138 1950 30  0001 C CNN
F 3 "" H 8100 2100 60  0000 C CNN
F 4 "Cap 0603 X7R 10%" H 8100 2100 60  0001 C CNN "MPN"
	1    8100 2100
	1    0    0    -1  
$EndComp
$Comp
L Csmall C18
U 1 1 564A67B9
P 8350 2100
F 0 "C18" H 8375 2200 50  0000 L CNN
F 1 "100n" H 8375 2000 50  0000 L CNN
F 2 "IPC7351-Nominal:CAPC1608X90" H 8388 1950 30  0001 C CNN
F 3 "" H 8350 2100 60  0000 C CNN
F 4 "Cap 0603 X7R 10%" H 8350 2100 60  0001 C CNN "MPN"
	1    8350 2100
	1    0    0    -1  
$EndComp
$Comp
L usb_3v3 #PWR024
U 1 1 564A6B0B
P 8350 1900
F 0 "#PWR024" H 8350 1750 50  0001 C CNN
F 1 "usb_3v3" H 8350 2040 50  0000 C CNN
F 2 "" H 8350 1900 60  0000 C CNN
F 3 "" H 8350 1900 60  0000 C CNN
	1    8350 1900
	1    0    0    -1  
$EndComp
$Comp
L GND #PWR025
U 1 1 564A6B4F
P 7600 2250
F 0 "#PWR025" H 7600 2000 50  0001 C CNN
F 1 "GND" H 7600 2100 50  0000 C CNN
F 2 "" H 7600 2250 60  0000 C CNN
F 3 "" H 7600 2250 60  0000 C CNN
	1    7600 2250
	1    0    0    -1  
$EndComp
$Comp
L Csmall C12
U 1 1 564A6C9E
P 6600 2100
F 0 "C12" H 6625 2200 50  0000 L CNN
F 1 "100n" H 6625 2000 50  0000 L CNN
F 2 "IPC7351-Nominal:CAPC1608X90" H 6638 1950 30  0001 C CNN
F 3 "" H 6600 2100 60  0000 C CNN
F 4 "Cap 0603 X7R 10%" H 6600 2100 60  0001 C CNN "MPN"
	1    6600 2100
	1    0    0    -1  
$EndComp
$Comp
L Csmall C13
U 1 1 564A6CAA
P 6850 2100
F 0 "C13" H 6875 2200 50  0000 L CNN
F 1 "100n" H 6875 2000 50  0000 L CNN
F 2 "IPC7351-Nominal:CAPC1608X90" H 6888 1950 30  0001 C CNN
F 3 "" H 6850 2100 60  0000 C CNN
F 4 "Cap 0603 X7R 10%" H 6850 2100 60  0001 C CNN "MPN"
	1    6850 2100
	1    0    0    -1  
$EndComp
$Comp
L Csmall C14
U 1 1 564A6CB0
P 7100 2100
F 0 "C14" H 7125 2200 50  0000 L CNN
F 1 "100n" H 7125 2000 50  0000 L CNN
F 2 "IPC7351-Nominal:CAPC1608X90" H 7138 1950 30  0001 C CNN
F 3 "" H 7100 2100 60  0000 C CNN
F 4 "Cap 0603 X7R 10%" H 7100 2100 60  0001 C CNN "MPN"
	1    7100 2100
	1    0    0    -1  
$EndComp
$Comp
L GND #PWR026
U 1 1 564A6CCA
P 6600 2250
F 0 "#PWR026" H 6600 2000 50  0001 C CNN
F 1 "GND" H 6600 2100 50  0000 C CNN
F 2 "" H 6600 2250 60  0000 C CNN
F 3 "" H 6600 2250 60  0000 C CNN
	1    6600 2250
	1    0    0    -1  
$EndComp
$Comp
L INDUCTOR_FERRITE L1
U 1 1 564A70F0
P 4550 1950
F 0 "L1" H 4550 2050 50  0000 C CNN
F 1 "600R" H 4550 1850 50  0000 C CNN
F 2 "IPC7351-Nominal:INDC1608X95" H 4550 1950 60  0001 C CNN
F 3 "" H 4550 1950 60  0000 C CNN
F 4 "Murata" H 4550 1950 60  0001 C CNN "Manuf"
F 5 "BLM18TG601TN1D" H 4550 1950 60  0001 C CNN "MPN"
	1    4550 1950
	1    0    0    -1  
$EndComp
$Comp
L CPsmall C9
U 1 1 564A71DE
P 5100 2800
F 0 "C9" H 5125 2900 50  0000 L CNN
F 1 "4u7" H 5125 2700 50  0000 L CNN
F 2 "IPC7351-Nominal:CAPC1608X90" H 5138 2650 30  0001 C CNN
F 3 "" H 5100 2800 60  0000 C CNN
F 4 "Cap 0603 X5R 20% 6.3V" H 5100 2800 60  0001 C CNN "MPN"
	1    5100 2800
	1    0    0    -1  
$EndComp
$Comp
L CPsmall C8
U 1 1 564A729B
P 5100 2100
F 0 "C8" H 5125 2200 50  0000 L CNN
F 1 "4u7" H 5125 2000 50  0000 L CNN
F 2 "IPC7351-Nominal:CAPC1608X90" H 5138 1950 30  0001 C CNN
F 3 "" H 5100 2100 60  0000 C CNN
F 4 "Cap 0603 X5R 20% 6.3V" H 5100 2100 60  0001 C CNN "MPN"
	1    5100 2100
	1    0    0    -1  
$EndComp
$Comp
L Csmall C11
U 1 1 564A7349
P 5600 2800
F 0 "C11" H 5625 2900 50  0000 L CNN
F 1 "100n" H 5625 2700 50  0000 L CNN
F 2 "IPC7351-Nominal:CAPC1608X90" H 5638 2650 30  0001 C CNN
F 3 "" H 5600 2800 60  0000 C CNN
F 4 "Cap 0603 X7R 10%" H 5600 2800 60  0001 C CNN "MPN"
	1    5600 2800
	1    0    0    -1  
$EndComp
$Comp
L Csmall C10
U 1 1 564A7407
P 5600 2100
F 0 "C10" H 5625 2200 50  0000 L CNN
F 1 "100n" H 5625 2000 50  0000 L CNN
F 2 "IPC7351-Nominal:CAPC1608X90" H 5638 1950 30  0001 C CNN
F 3 "" H 5600 2100 60  0000 C CNN
F 4 "Cap 0603 X7R 10%" H 5600 2100 60  0001 C CNN "MPN"
	1    5600 2100
	1    0    0    -1  
$EndComp
$Comp
L INDUCTOR_FERRITE L2
U 1 1 564A74ED
P 4550 2650
F 0 "L2" H 4550 2750 50  0000 C CNN
F 1 "600R" H 4550 2550 50  0000 C CNN
F 2 "IPC7351-Nominal:INDC1608X95" H 4550 2650 60  0001 C CNN
F 3 "" H 4550 2650 60  0000 C CNN
F 4 "Murata" H 4550 2650 60  0001 C CNN "Manuf"
F 5 "BLM18TG601TN1D" H 4550 2650 60  0001 C CNN "MPN"
	1    4550 2650
	1    0    0    -1  
$EndComp
$Comp
L usb_3v3 #PWR027
U 1 1 564A7555
P 4000 1900
F 0 "#PWR027" H 4000 1750 50  0001 C CNN
F 1 "usb_3v3" H 4000 2040 50  0000 C CNN
F 2 "" H 4000 1900 60  0000 C CNN
F 3 "" H 4000 1900 60  0000 C CNN
	1    4000 1900
	1    0    0    -1  
$EndComp
$Comp
L GND #PWR028
U 1 1 564A7D24
P 5100 2950
F 0 "#PWR028" H 5100 2700 50  0001 C CNN
F 1 "GND" H 5100 2800 50  0000 C CNN
F 2 "" H 5100 2950 60  0000 C CNN
F 3 "" H 5100 2950 60  0000 C CNN
	1    5100 2950
	1    0    0    -1  
$EndComp
$Comp
L GND #PWR029
U 1 1 564A7D83
P 5600 2950
F 0 "#PWR029" H 5600 2700 50  0001 C CNN
F 1 "GND" H 5600 2800 50  0000 C CNN
F 2 "" H 5600 2950 60  0000 C CNN
F 3 "" H 5600 2950 60  0000 C CNN
	1    5600 2950
	1    0    0    -1  
$EndComp
$Comp
L GND #PWR030
U 1 1 564A7EDC
P 5600 2250
F 0 "#PWR030" H 5600 2000 50  0001 C CNN
F 1 "GND" H 5600 2100 50  0000 C CNN
F 2 "" H 5600 2250 60  0000 C CNN
F 3 "" H 5600 2250 60  0000 C CNN
	1    5600 2250
	1    0    0    -1  
$EndComp
$Comp
L GND #PWR031
U 1 1 564A8057
P 5100 2250
F 0 "#PWR031" H 5100 2000 50  0001 C CNN
F 1 "GND" H 5100 2100 50  0000 C CNN
F 2 "" H 5100 2250 60  0000 C CNN
F 3 "" H 5100 2250 60  0000 C CNN
	1    5100 2250
	1    0    0    -1  
$EndComp
Text Notes 4100 2350 0    60   ~ 0
0603 ferrite beads
$Comp
L usb_1v8 #PWR032
U 1 1 564A89D8
P 7100 1900
F 0 "#PWR032" H 7100 1750 50  0001 C CNN
F 1 "usb_1v8" H 7100 2040 50  0000 C CNN
F 2 "" H 7100 1900 60  0000 C CNN
F 3 "" H 7100 1900 60  0000 C CNN
	1    7100 1900
	1    0    0    -1  
$EndComp
$Comp
L Rsmall R14
U 1 1 564A9779
P 4900 5400
F 0 "R14" V 4980 5400 50  0000 C CNN
F 1 "12k" V 4900 5400 50  0000 C CNN
F 2 "IPC7351-Nominal:RESC1608X50" V 4830 5400 30  0001 C CNN
F 3 "" H 4900 5400 30  0000 C CNN
F 4 "Res 0603 1%" H 4900 5400 60  0001 C CNN "MPN"
	1    4900 5400
	0    1    -1   0   
$EndComp
$Comp
L Rsmall R15
U 1 1 564A980F
P 4900 5600
F 0 "R15" V 4980 5600 50  0000 C CNN
F 1 "2k2" V 4900 5600 50  0000 C CNN
F 2 "IPC7351-Nominal:RESC1608X50" V 4830 5600 30  0001 C CNN
F 3 "" H 4900 5600 30  0000 C CNN
F 4 "Res 0603 1%" H 4900 5600 60  0001 C CNN "MPN"
	1    4900 5600
	0    -1   1    0   
$EndComp
$Comp
L GND #PWR033
U 1 1 564A9889
P 4550 5400
F 0 "#PWR033" H 4550 5150 50  0001 C CNN
F 1 "GND" H 4550 5250 50  0000 C CNN
F 2 "" H 4550 5400 60  0000 C CNN
F 3 "" H 4550 5400 60  0000 C CNN
	1    4550 5400
	1    0    0    -1  
$EndComp
$Comp
L usb_3v3 #PWR034
U 1 1 564A9C99
P 4300 5500
F 0 "#PWR034" H 4300 5350 50  0001 C CNN
F 1 "usb_3v3" H 4300 5640 50  0000 C CNN
F 2 "" H 4300 5500 60  0000 C CNN
F 3 "" H 4300 5500 60  0000 C CNN
	1    4300 5500
	1    0    0    -1  
$EndComp
$Comp
L 25Q032 U7
U 1 1 564AAB09
P 14000 1900
F 0 "U7" H 14250 1950 60  0000 C CNN
F 1 "25Q032" H 14250 1050 60  0000 C CNN
F 2 "IPC7351-Nominal:SOIC127P600X173-8" H 14000 1900 60  0001 C CNN
F 3 "" H 14000 1900 60  0000 C CNN
F 4 "Micron" H 14000 1900 60  0001 C CNN "Manuf"
F 5 "25Q032A13ESC" H 14000 1900 60  0001 C CNN "MPN"
F 6 "SOIC8 narrow (3.9mm)" H 14000 1900 60  0001 C CNN "Notes"
	1    14000 1900
	1    0    0    -1  
$EndComp
$Comp
L GND #PWR035
U 1 1 564AABD4
P 14000 2950
F 0 "#PWR035" H 14000 2700 50  0001 C CNN
F 1 "GND" H 14000 2800 50  0000 C CNN
F 2 "" H 14000 2950 60  0000 C CNN
F 3 "" H 14000 2950 60  0000 C CNN
	1    14000 2950
	1    0    0    -1  
$EndComp
$Comp
L usb_3v3 #PWR036
U 1 1 564AADA4
P 14000 1650
F 0 "#PWR036" H 14000 1500 50  0001 C CNN
F 1 "usb_3v3" H 14000 1790 50  0000 C CNN
F 2 "" H 14000 1650 60  0000 C CNN
F 3 "" H 14000 1650 60  0000 C CNN
	1    14000 1650
	1    0    0    -1  
$EndComp
$Comp
L Rsmall R29
U 1 1 564AB721
P 13200 1450
F 0 "R29" V 13250 1250 50  0000 C CNN
F 1 "10k" V 13200 1450 50  0000 C CNN
F 2 "IPC7351-Nominal:RESC1608X50" V 13130 1450 30  0001 C CNN
F 3 "" H 13200 1450 30  0000 C CNN
F 4 "Res 0603 1%" H 13200 1450 60  0001 C CNN "MPN"
	1    13200 1450
	-1   0    0    -1  
$EndComp
$Comp
L Rsmall R30
U 1 1 564AB92D
P 13300 1450
F 0 "R30" V 13350 1250 50  0000 C CNN
F 1 "10k" V 13300 1450 50  0000 C CNN
F 2 "IPC7351-Nominal:RESC1608X50" V 13230 1450 30  0001 C CNN
F 3 "" H 13300 1450 30  0000 C CNN
F 4 "Res 0603 1%" H 13300 1450 60  0001 C CNN "MPN"
	1    13300 1450
	-1   0    0    -1  
$EndComp
$Comp
L Rsmall R31
U 1 1 564AB9A5
P 13400 1450
F 0 "R31" V 13450 1250 50  0000 C CNN
F 1 "10k" V 13400 1450 50  0000 C CNN
F 2 "IPC7351-Nominal:RESC1608X50" V 13330 1450 30  0001 C CNN
F 3 "" H 13400 1450 30  0000 C CNN
F 4 "Res 0603 1%" H 13400 1450 60  0001 C CNN "MPN"
	1    13400 1450
	-1   0    0    -1  
$EndComp
$Comp
L Rsmall R28
U 1 1 564ABA47
P 13100 1450
F 0 "R28" V 13150 1250 50  0000 C CNN
F 1 "10k" V 13100 1450 50  0000 C CNN
F 2 "IPC7351-Nominal:RESC1608X50" V 13030 1450 30  0001 C CNN
F 3 "" H 13100 1450 30  0000 C CNN
F 4 "Res 0603 1%" H 13100 1450 60  0001 C CNN "MPN"
	1    13100 1450
	-1   0    0    -1  
$EndComp
Text GLabel 12550 2900 0    50   Output ~ 0
ice_miso
Text GLabel 12550 3000 0    50   Input ~ 0
ice_mosi
Text GLabel 12550 3100 0    50   Input ~ 0
ice_sck
Text GLabel 12550 3200 0    50   Input ~ 0
ice_ss_b
$Comp
L usb_3v3 #PWR037
U 1 1 564AD302
P 10850 1900
F 0 "#PWR037" H 10850 1750 50  0001 C CNN
F 1 "usb_3v3" H 10850 2040 50  0000 C CNN
F 2 "" H 10850 1900 60  0000 C CNN
F 3 "" H 10850 1900 60  0000 C CNN
	1    10850 1900
	1    0    0    -1  
$EndComp
$Comp
L usb_3v3 #PWR038
U 1 1 564AD37C
P 14750 1650
F 0 "#PWR038" H 14750 1500 50  0001 C CNN
F 1 "usb_3v3" H 14750 1790 50  0000 C CNN
F 2 "" H 14750 1650 60  0000 C CNN
F 3 "" H 14750 1650 60  0000 C CNN
	1    14750 1650
	1    0    0    -1  
$EndComp
$Comp
L Csmall C20
U 1 1 564AD503
P 14750 1800
F 0 "C20" H 14775 1900 50  0000 L CNN
F 1 "100n" H 14775 1700 50  0000 L CNN
F 2 "IPC7351-Nominal:CAPC1608X90" H 14788 1650 30  0001 C CNN
F 3 "" H 14750 1800 60  0000 C CNN
F 4 "Cap 0603 X7R 10%" H 14750 1800 60  0001 C CNN "MPN"
	1    14750 1800
	1    0    0    -1  
$EndComp
$Comp
L GND #PWR039
U 1 1 564AD6AA
P 14750 1950
F 0 "#PWR039" H 14750 1700 50  0001 C CNN
F 1 "GND" H 14750 1800 50  0000 C CNN
F 2 "" H 14750 1950 60  0000 C CNN
F 3 "" H 14750 1950 60  0000 C CNN
	1    14750 1950
	1    0    0    -1  
$EndComp
$Comp
L usb_3v3 #PWR040
U 1 1 564AE007
P 13400 1200
F 0 "#PWR040" H 13400 1050 50  0001 C CNN
F 1 "usb_3v3" H 13400 1340 50  0000 C CNN
F 2 "" H 13400 1200 60  0000 C CNN
F 3 "" H 13400 1200 60  0000 C CNN
	1    13400 1200
	1    0    0    -1  
$EndComp
$Comp
L usb_3v3 #PWR041
U 1 1 564AE327
P 10450 1900
F 0 "#PWR041" H 10450 1750 50  0001 C CNN
F 1 "usb_3v3" H 10450 2040 50  0000 C CNN
F 2 "" H 10450 1900 60  0000 C CNN
F 3 "" H 10450 1900 60  0000 C CNN
	1    10450 1900
	1    0    0    -1  
$EndComp
$Comp
L Csmall C19
U 1 1 564AE32D
P 10450 2050
F 0 "C19" H 10475 2150 50  0000 L CNN
F 1 "100n" H 10475 1950 50  0000 L CNN
F 2 "IPC7351-Nominal:CAPC1608X90" H 10488 1900 30  0001 C CNN
F 3 "" H 10450 2050 60  0000 C CNN
F 4 "Cap 0603 X7R 10%" H 10450 2050 60  0001 C CNN "MPN"
	1    10450 2050
	1    0    0    -1  
$EndComp
$Comp
L GND #PWR042
U 1 1 564AE333
P 10450 2200
F 0 "#PWR042" H 10450 1950 50  0001 C CNN
F 1 "GND" H 10450 2050 50  0000 C CNN
F 2 "" H 10450 2200 60  0000 C CNN
F 3 "" H 10450 2200 60  0000 C CNN
	1    10450 2200
	1    0    0    -1  
$EndComp
Text GLabel 10100 4400 2    50   Input ~ 0
ice_miso
Text GLabel 10100 4300 2    50   Output ~ 0
ice_mosi
Text GLabel 10100 4200 2    50   Output ~ 0
ice_sck
Text GLabel 10100 4500 2    50   Output ~ 0
ice_ss_b
Text GLabel 10100 4600 2    50   Output ~ 0
ice_cdone
Text GLabel 10100 4700 2    50   Output ~ 0
ice_crest
Text GLabel 4400 8100 2    50   Output ~ 0
usb_clk
Text GLabel 10100 5800 2    50   BiDi ~ 0
bdbus0
Text GLabel 10100 5900 2    50   BiDi ~ 0
bdbus1
Text GLabel 10100 6000 2    50   BiDi ~ 0
bdbus2
Text GLabel 10100 6100 2    50   BiDi ~ 0
bdbus3
Text GLabel 10100 6200 2    50   BiDi ~ 0
bdbus4
Text GLabel 10100 6300 2    50   BiDi ~ 0
bdbus5
Text GLabel 10100 6400 2    50   BiDi ~ 0
bdbus6
Text GLabel 10100 6500 2    50   BiDi ~ 0
bdbus7
Text GLabel 8350 4000 2    50   BiDi ~ 0
adbus0
Text GLabel 8350 4100 2    50   BiDi ~ 0
adbus1
Text GLabel 8350 4200 2    50   BiDi ~ 0
adbus2
Text GLabel 8350 4300 2    50   BiDi ~ 0
adbus3
Text GLabel 8350 4400 2    50   BiDi ~ 0
adbus4
Text GLabel 8350 4500 2    50   BiDi ~ 0
adbus5
Text GLabel 8350 4600 2    50   BiDi ~ 0
adbus6
Text GLabel 8350 4700 2    50   BiDi ~ 0
adbus7
Text GLabel 8350 4900 2    50   Output ~ 0
rxf#
Text GLabel 8350 5000 2    50   Output ~ 0
txe#
Text GLabel 8350 5100 2    50   Input ~ 0
rd#
Text GLabel 8350 5200 2    50   Input ~ 0
wr#
Text GLabel 8350 5400 2    50   Output ~ 0
fifo_clk
Text GLabel 8350 5500 2    50   Input ~ 0
oe#
Text GLabel 8350 5600 2    50   Input ~ 0
siwu
Text Notes 13250 3600 0    50   ~ 0
Configuration flash, programmed\nfrom FT2232. Icestick uses bus A\nfor this, but we need this for the FIFO,\nso run this from bus B
Wire Wire Line
	2600 7600 2550 7600
Wire Wire Line
	2550 7600 2550 8250
Wire Wire Line
	3650 7500 3600 7500
Wire Wire Line
	2600 7500 2550 7500
Wire Wire Line
	2550 7500 2550 7300
Wire Wire Line
	2550 7300 3650 7300
Connection ~ 3650 7300
Wire Wire Line
	3600 7600 4200 7600
Wire Wire Line
	4200 7000 4200 8100
Wire Wire Line
	4200 7000 5100 7000
Wire Wire Line
	2250 6200 2250 6250
Wire Wire Line
	2250 6450 2250 6500
Wire Wire Line
	3650 7250 3650 7500
Wire Wire Line
	2550 6400 2600 6400
Wire Wire Line
	2550 6200 2550 6600
Wire Wire Line
	2550 6600 2600 6600
Connection ~ 2550 6400
Wire Wire Line
	2550 6700 2600 6700
Wire Wire Line
	2550 6700 2550 6850
Wire Wire Line
	3600 6600 5100 6600
Wire Wire Line
	3600 6700 3850 6700
Wire Wire Line
	4150 6700 4350 6700
Wire Wire Line
	3600 6400 5100 6400
Wire Wire Line
	3600 6500 5100 6500
Wire Wire Line
	4350 6700 4350 6600
Wire Wire Line
	3650 6300 3650 6400
Connection ~ 3650 6400
Wire Wire Line
	3800 6300 3800 6500
Connection ~ 3800 6500
Wire Wire Line
	3950 6300 3950 6600
Connection ~ 3950 6600
Wire Wire Line
	3650 5800 3650 6000
Wire Wire Line
	3650 5850 3950 5850
Wire Wire Line
	3950 5850 3950 6000
Wire Wire Line
	3800 6000 3800 5850
Connection ~ 3800 5850
Connection ~ 3650 5850
Wire Wire Line
	2250 7250 2250 7300
Wire Wire Line
	2250 7500 2250 7550
Wire Wire Line
	6100 8000 6100 8100
Wire Wire Line
	5100 8100 7200 8100
Wire Wire Line
	7200 8100 7200 8000
Wire Wire Line
	7100 8000 7100 8100
Connection ~ 7100 8100
Wire Wire Line
	7000 8000 7000 8100
Connection ~ 7000 8100
Wire Wire Line
	6900 8000 6900 8100
Connection ~ 6900 8100
Wire Wire Line
	6800 8000 6800 8100
Connection ~ 6800 8100
Wire Wire Line
	6700 8000 6700 8100
Connection ~ 6700 8100
Wire Wire Line
	6600 8000 6600 8100
Connection ~ 6600 8100
Wire Wire Line
	5100 7700 5100 8100
Connection ~ 6100 8100
Wire Wire Line
	2100 5100 5100 5100
Wire Wire Line
	2100 5200 5100 5200
Wire Wire Line
	2100 5400 2550 5400
Wire Wire Line
	2550 5400 2550 5650
Wire Wire Line
	1700 5600 2050 5600
Wire Wire Line
	2350 5600 2550 5600
Connection ~ 2550 5600
Wire Wire Line
	2550 5000 2100 5000
Wire Wire Line
	2550 4800 2550 5000
Connection ~ 4350 6600
Wire Wire Line
	6500 8000 6500 8100
Connection ~ 6500 8100
Wire Wire Line
	6350 8250 6350 8100
Connection ~ 6350 8100
Wire Wire Line
	4600 4500 4600 4550
Wire Wire Line
	4600 4200 5100 4200
Wire Wire Line
	4600 3550 4600 4300
Wire Wire Line
	4600 3600 6700 3600
Wire Wire Line
	6500 3600 6500 3700
Wire Wire Line
	6600 3600 6600 3700
Connection ~ 6500 3600
Wire Wire Line
	6700 3600 6700 3700
Connection ~ 6600 3600
Connection ~ 4600 4200
Connection ~ 4600 3600
Wire Wire Line
	4000 1900 4000 4000
Wire Wire Line
	6900 3700 6900 3600
Wire Wire Line
	6900 3600 7200 3600
Wire Wire Line
	7200 3550 7200 3700
Wire Wire Line
	7000 3700 7000 3600
Connection ~ 7000 3600
Wire Wire Line
	7100 3700 7100 3600
Connection ~ 7100 3600
Connection ~ 7200 3600
Wire Wire Line
	7600 2200 7600 2250
Wire Wire Line
	7600 2250 8350 2250
Wire Wire Line
	8350 2250 8350 2200
Wire Wire Line
	8100 2200 8100 2250
Connection ~ 8100 2250
Wire Wire Line
	7850 2200 7850 2250
Connection ~ 7850 2250
Wire Wire Line
	7600 2000 7600 1950
Wire Wire Line
	7600 1950 8350 1950
Wire Wire Line
	8350 1900 8350 2000
Wire Wire Line
	8100 2000 8100 1950
Connection ~ 8100 1950
Wire Wire Line
	7850 2000 7850 1950
Connection ~ 7850 1950
Wire Wire Line
	6600 2200 6600 2250
Wire Wire Line
	6600 2250 7100 2250
Wire Wire Line
	7100 2250 7100 2200
Wire Wire Line
	6850 2200 6850 2250
Connection ~ 6850 2250
Wire Wire Line
	6600 2000 6600 1950
Wire Wire Line
	6600 1950 7100 1950
Wire Wire Line
	6850 1950 6850 2000
Connection ~ 6850 1950
Wire Wire Line
	4800 2650 6100 2650
Wire Wire Line
	6100 2600 6100 3700
Wire Wire Line
	4800 1950 6200 1950
Wire Wire Line
	6200 1950 6200 3700
Wire Wire Line
	5100 2700 5100 2650
Connection ~ 5100 2650
Wire Wire Line
	5600 2700 5600 2650
Connection ~ 5600 2650
Wire Wire Line
	5100 2000 5100 1950
Connection ~ 5100 1950
Wire Wire Line
	5600 2000 5600 1950
Connection ~ 5600 1950
Wire Wire Line
	5100 2250 5100 2200
Wire Wire Line
	5600 2250 5600 2200
Wire Wire Line
	5100 2900 5100 2950
Wire Wire Line
	5600 2900 5600 2950
Wire Wire Line
	7100 1900 7100 2000
Connection ~ 7100 1950
Connection ~ 8350 1950
Connection ~ 4000 1950
Wire Wire Line
	4300 2650 4000 2650
Connection ~ 4000 2650
Wire Wire Line
	4000 1950 4300 1950
Wire Wire Line
	4550 5400 4750 5400
Wire Wire Line
	5050 5400 5100 5400
Wire Wire Line
	5050 5600 5100 5600
Wire Wire Line
	4300 5500 4300 5600
Wire Wire Line
	4300 5600 4750 5600
Wire Wire Line
	14000 2900 14000 2950
Wire Wire Line
	14000 1650 14000 1700
Wire Wire Line
	12600 2200 13500 2200
Wire Wire Line
	12600 2400 12750 2400
Wire Wire Line
	12750 2100 12750 3000
Wire Wire Line
	12750 2100 13500 2100
Wire Wire Line
	12600 2500 12950 2500
Wire Wire Line
	12950 2300 12950 3200
Wire Wire Line
	12950 2300 13500 2300
Wire Wire Line
	14500 2100 14500 1750
Wire Wire Line
	14500 1750 12650 1750
Wire Wire Line
	12650 1750 12650 2900
Wire Wire Line
	12650 2300 12600 2300
Wire Wire Line
	13200 2400 13500 2400
Wire Wire Line
	13100 2500 13500 2500
Wire Wire Line
	13100 2500 13100 1600
Wire Wire Line
	13200 1600 13200 2400
Wire Wire Line
	13300 1600 13300 2300
Connection ~ 13300 2300
Wire Wire Line
	13400 1600 13400 2200
Connection ~ 13400 2200
Wire Wire Line
	12650 2900 12550 2900
Connection ~ 12650 2300
Wire Wire Line
	12750 3000 12550 3000
Connection ~ 12750 2400
Wire Wire Line
	12550 3100 12850 3100
Wire Wire Line
	12850 3100 12850 2200
Connection ~ 12850 2200
Wire Wire Line
	12950 3200 12550 3200
Connection ~ 12950 2500
Wire Wire Line
	14750 1650 14750 1700
Wire Wire Line
	14750 1900 14750 1950
Wire Wire Line
	13100 1300 13100 1250
Wire Wire Line
	13100 1250 13400 1250
Wire Wire Line
	13400 1200 13400 1300
Wire Wire Line
	13300 1300 13300 1250
Connection ~ 13300 1250
Wire Wire Line
	13200 1250 13200 1300
Connection ~ 13200 1250
Connection ~ 13400 1250
Wire Wire Line
	10850 1900 10850 2200
Wire Wire Line
	10850 2200 10900 2200
Wire Wire Line
	10450 1900 10450 1950
Wire Wire Line
	10450 2150 10450 2200
Wire Wire Line
	4200 8100 4400 8100
Connection ~ 4200 7600
Wire Wire Line
	8200 5800 10100 5800
Wire Wire Line
	8200 5900 10100 5900
Wire Wire Line
	8200 6000 10100 6000
Wire Wire Line
	8200 6100 10100 6100
Wire Wire Line
	8200 6200 10100 6200
Wire Wire Line
	8200 6300 10100 6300
Wire Wire Line
	8200 6400 10100 6400
Wire Wire Line
	9750 4600 9750 6400
Connection ~ 9350 5800
Connection ~ 9450 5900
Connection ~ 9550 6000
Connection ~ 9650 6200
Connection ~ 9750 6400
Wire Wire Line
	8200 4900 8350 4900
Wire Wire Line
	8200 5000 8350 5000
Wire Wire Line
	8200 5100 8350 5100
Wire Wire Line
	8200 5200 8350 5200
Wire Wire Line
	8200 5400 8350 5400
Wire Wire Line
	8200 5500 8350 5500
Wire Wire Line
	8200 5600 8350 5600
Text GLabel 10100 6700 2    50   BiDi ~ 0
bcbus0
Text GLabel 10100 6800 2    50   BiDi ~ 0
bcbus1
Text GLabel 10100 6900 2    50   BiDi ~ 0
bcbus2
Text GLabel 10100 7000 2    50   BiDi ~ 0
bcbus3
Text GLabel 10100 7100 2    50   BiDi ~ 0
bcbus4
Text GLabel 10100 7200 2    50   BiDi ~ 0
bcbus5
Text GLabel 10100 7300 2    50   BiDi ~ 0
bcbus6
Text GLabel 10100 7400 2    50   BiDi ~ 0
bcbus7
Wire Wire Line
	8200 6700 10100 6700
Wire Wire Line
	8200 6800 10100 6800
Wire Wire Line
	8200 6900 10100 6900
Wire Wire Line
	8200 7000 10100 7000
Wire Wire Line
	8200 7100 10100 7100
Wire Wire Line
	8200 7200 10100 7200
Wire Wire Line
	8200 7300 10100 7300
Wire Wire Line
	8200 7400 10100 7400
Wire Wire Line
	4000 4000 5100 4000
NoConn ~ 5100 7400
$Comp
L CONN_1 P6
U 1 1 564C2B66
P 8950 5150
F 0 "P6" H 9030 5150 40  0000 L CNN
F 1 "CONN_1" H 8950 5205 30  0001 C CNN
F 2 "conn-test:TEST-SMD-SMALL" H 8950 5150 60  0001 C CNN
F 3 "" H 8950 5150 60  0000 C CNN
	1    8950 5150
	1    0    0    -1  
$EndComp
$Comp
L CONN_1 P7
U 1 1 564C2C15
P 8500 7600
F 0 "P7" H 8580 7600 40  0000 L CNN
F 1 "CONN_1" H 8500 7655 30  0001 C CNN
F 2 "conn-test:TEST-SMD-SMALL" H 8500 7600 60  0001 C CNN
F 3 "" H 8500 7600 60  0000 C CNN
	1    8500 7600
	1    0    0    -1  
$EndComp
$Comp
L CONN_1 P8
U 1 1 564C2CCA
P 8500 7700
F 0 "P8" H 8580 7700 40  0000 L CNN
F 1 "CONN_1" H 8500 7755 30  0001 C CNN
F 2 "conn-test:TEST-SMD-SMALL" H 8500 7700 60  0001 C CNN
F 3 "" H 8500 7700 60  0000 C CNN
	1    8500 7700
	1    0    0    -1  
$EndComp
Wire Wire Line
	8200 5300 8800 5300
Wire Wire Line
	8200 7600 8350 7600
Wire Wire Line
	8200 7700 8350 7700
NoConn ~ 2600 6500
$Comp
L PWR_FLAG #FLG043
U 1 1 564C92E3
P 5350 1900
F 0 "#FLG043" H 5350 1995 30  0001 C CNN
F 1 "PWR_FLAG" H 5350 2080 30  0000 C CNN
F 2 "" H 5350 1900 60  0000 C CNN
F 3 "" H 5350 1900 60  0000 C CNN
	1    5350 1900
	1    0    0    -1  
$EndComp
$Comp
L PWR_FLAG #FLG044
U 1 1 564C93BF
P 5350 2600
F 0 "#FLG044" H 5350 2695 30  0001 C CNN
F 1 "PWR_FLAG" H 5350 2780 30  0000 C CNN
F 2 "" H 5350 2600 60  0000 C CNN
F 3 "" H 5350 2600 60  0000 C CNN
	1    5350 2600
	1    0    0    -1  
$EndComp
$Comp
L usb_3v3_vphy #PWR045
U 1 1 564C985A
P 6100 2600
F 0 "#PWR045" H 6100 2450 50  0001 C CNN
F 1 "usb_3v3_vphy" H 6100 2740 50  0000 C CNN
F 2 "" H 6100 2600 60  0000 C CNN
F 3 "" H 6100 2600 60  0000 C CNN
	1    6100 2600
	1    0    0    -1  
$EndComp
$Comp
L usb_3v3_vpll #PWR046
U 1 1 564C9A44
P 6100 1900
F 0 "#PWR046" H 6100 1750 50  0001 C CNN
F 1 "usb_3v3_vpll" H 6100 2040 50  0000 C CNN
F 2 "" H 6100 1900 60  0000 C CNN
F 3 "" H 6100 1900 60  0000 C CNN
	1    6100 1900
	1    0    0    -1  
$EndComp
Wire Wire Line
	6100 1900 6100 1950
Connection ~ 6100 1950
Wire Wire Line
	5350 1900 5350 1950
Connection ~ 5350 1950
Connection ~ 6100 2650
Wire Wire Line
	5350 2600 5350 2650
Connection ~ 5350 2650
$Comp
L USB_MICRO_B P5
U 1 1 564D0319
P 1800 5200
F 0 "P5" H 2000 5000 50  0000 C CNN
F 1 "USB_MICRO_B" H 1750 5400 50  0000 C CNN
F 2 "custom:usb_micro_b_vert" V 1750 5100 60  0000 C CNN
F 3 "" V 1750 5100 60  0000 C CNN
F 4 "Molex" H 1800 5200 60  0001 C CNN "Manuf"
F 5 "105133-0011" H 1800 5200 60  0001 C CNN "MPN"
F 6 "Available RS but Octopart doesn't show - 896-7572" H 1800 5200 60  0001 C CNN "Notes"
	1    1800 5200
	0    -1   1    0   
$EndComp
NoConn ~ 2100 5300
Wire Wire Line
	8200 4000 8350 4000
Wire Wire Line
	8200 4100 8350 4100
Wire Wire Line
	8200 4200 8350 4200
Wire Wire Line
	8200 4300 8350 4300
Wire Wire Line
	8200 4400 8350 4400
Wire Wire Line
	8200 4500 8350 4500
Wire Wire Line
	8200 4600 8350 4600
Wire Wire Line
	8200 4700 8350 4700
Wire Wire Line
	9850 4700 10100 4700
Wire Wire Line
	9750 4600 10100 4600
Wire Wire Line
	10100 4500 9650 4500
Wire Wire Line
	9650 4500 9650 6200
Wire Wire Line
	10100 4400 9550 4400
Wire Wire Line
	9550 4400 9550 6000
Wire Wire Line
	10100 4300 9450 4300
Wire Wire Line
	9450 4300 9450 5900
Wire Wire Line
	10100 4200 9350 4200
Wire Wire Line
	9350 4200 9350 5800
Wire Wire Line
	9850 4700 9850 6500
Connection ~ 9850 6500
Wire Wire Line
	10100 6500 8200 6500
Text GLabel 8800 5300 2    50   BiDi ~ 0
acbus4
Wire Wire Line
	8800 5150 8700 5150
Wire Wire Line
	8700 5150 8700 5300
Connection ~ 8700 5300
$Comp
L ICE40HX1KTQ144 U6
U 5 1 568B1A6F
P 11700 2100
F 0 "U6" H 11700 2300 60  0000 C CNN
F 1 "ICE40HX1KTQ144" H 11700 2200 60  0000 C CNN
F 2 "custom:QFP_144" H 11700 2200 60  0001 C CNN
F 3 "" H 11700 2200 60  0000 C CNN
F 4 "Lattice Semiconductor" H 11800 2400 60  0001 C CNN "Manuf"
F 5 "ICE40HX1K-TQ144" H 11900 2500 60  0001 C CNN "MPN"
	5    11700 2100
	1    0    0    -1  
$EndComp
$EndSCHEMATC
