(module IPC7351-Nominal:SON50P300X300X80-11 (layer F.Cu) (tedit 564C87FD)
  (descr "SON,0.50mm pitch;10 pin,3.10mm W X 3.00mm L X 0.80mm H body (w/thermal tab)")
  (attr smd)
  (fp_text reference U30 (at -2.09 2.65 90) (layer F.SilkS)
    (effects (font (size 0.8 0.8) (thickness 0.15)))
  )
  (fp_text value TPS61232 (at 0 0) (layer F.Fab)
    (effects (font (size 0.8 0.8) (thickness 0.15)))
  )
  (fp_line (start -1.55 -1.404) (end -1.55 -1.627) (layer F.SilkS) (width 0.35))
  (fp_line (start -1.55 -1.627) (end 1.55 -1.627) (layer F.SilkS) (width 0.35))
  (fp_line (start 1.55 -1.627) (end 1.55 -1.404) (layer F.SilkS) (width 0.35))
  (fp_line (start -1.55 1.404) (end -1.55 1.627) (layer F.SilkS) (width 0.35))
  (fp_line (start -1.55 1.627) (end 1.55 1.627) (layer F.SilkS) (width 0.35))
  (fp_line (start 1.55 1.627) (end 1.55 1.404) (layer F.SilkS) (width 0.35))
  (fp_line (start -2.185 -1.658) (end -2.058 -1.785) (layer F.SilkS) (width 0.35))
  (fp_line (start -2.058 -1.785) (end -1.931 -1.658) (layer F.SilkS) (width 0.35))
  (fp_line (start -1.931 -1.658) (end -2.058 -1.531) (layer F.SilkS) (width 0.35))
  (fp_line (start -2.058 -1.531) (end -2.185 -1.658) (layer F.SilkS) (width 0.35))
  (fp_line (start -2.435 -2.035) (end 2.125 -2.035) (layer F.CrtYd) (width 0.15))
  (fp_line (start 2.125 -2.035) (end 2.125 1.877) (layer F.CrtYd) (width 0.15))
  (fp_line (start 2.125 1.877) (end -2.435 1.877) (layer F.CrtYd) (width 0.15))
  (fp_line (start -2.435 1.877) (end -2.435 -2.035) (layer F.CrtYd) (width 0.15))
  (pad 1 smd oval (at -1.45 -1) (size 0.85 0.3) (layers F.Cu F.Paste F.Mask))
  (pad 2 smd oval (at -1.45 -0.5) (size 0.85 0.3) (layers F.Cu F.Paste F.Mask))
  (pad 3 smd oval (at -1.45 0) (size 0.85 0.3) (layers F.Cu F.Paste F.Mask))
  (pad 4 smd oval (at -1.45 0.5) (size 0.85 0.3) (layers F.Cu F.Paste F.Mask))
  (pad 5 smd oval (at -1.45 1) (size 0.85 0.3) (layers F.Cu F.Paste F.Mask))
  (pad 6 smd oval (at 1.45 1) (size 0.85 0.3) (layers F.Cu F.Paste F.Mask))
  (pad 7 smd oval (at 1.45 0.5) (size 0.85 0.3) (layers F.Cu F.Paste F.Mask))
  (pad 8 smd oval (at 1.45 0) (size 0.85 0.3) (layers F.Cu F.Paste F.Mask))
  (pad 9 smd oval (at 1.45 -0.5) (size 0.85 0.3) (layers F.Cu F.Paste F.Mask))
  (pad 10 smd oval (at 1.45 -1) (size 0.85 0.3) (layers F.Cu F.Paste F.Mask))
  (pad 11 smd rect (at 0 0) (size 1.6 2.1) (layers F.Cu F.Paste F.Mask))
)
