(module custom:WS2812B (layer F.Cu) (tedit 569531A2)
  (fp_text reference U25 (at -0.885141 3.559695) (layer F.SilkS)
    (effects (font (size 0.8 0.8) (thickness 0.15)))
  )
  (fp_text value WS2812B (at -2.5 -2.05) (layer F.Fab)
    (effects (font (size 1 1) (thickness 0.15)))
  )
  (fp_line (start 2.5 0.95) (end 2.5 0.95) (layer F.SilkS) (width 0.15))
  (fp_line (start 2.5 -0.75) (end 2.5 0.95) (layer F.SilkS) (width 0.15))
  (fp_line (start -2.6 -0.75) (end -2.6 -0.75) (layer F.SilkS) (width 0.15))
  (fp_line (start -2.6 0.95) (end -2.6 -0.75) (layer F.SilkS) (width 0.15))
  (fp_line (start -2.6 2.55) (end -2.6 2.55) (layer F.SilkS) (width 0.15))
  (fp_line (start -2.6 2.95) (end -2.6 2.55) (layer F.SilkS) (width 0.15))
  (fp_line (start 2.5 2.95) (end -2.6 2.95) (layer F.SilkS) (width 0.15))
  (fp_line (start 2.5 2.55) (end 2.5 2.95) (layer F.SilkS) (width 0.15))
  (fp_line (start 2.5 -2.35) (end 2.5 -2.35) (layer F.SilkS) (width 0.15))
  (fp_line (start 2.5 -2.75) (end 2.5 -2.35) (layer F.SilkS) (width 0.15))
  (fp_line (start -2.2 -2.75) (end 2.5 -2.75) (layer F.SilkS) (width 0.15))
  (fp_line (start -2.6 -2.35) (end -2.2 -2.75) (layer F.SilkS) (width 0.15))
  (pad 1 smd rect (at -2.5 -1.55) (size 1.5 0.9) (layers F.Cu F.Paste F.Mask))
  (pad 2 smd rect (at -2.5 1.75) (size 1.5 0.9) (layers F.Cu F.Paste F.Mask))
  (pad 3 smd rect (at 2.4 1.75) (size 1.5 0.9) (layers F.Cu F.Paste F.Mask))
  (pad 4 smd rect (at 2.4 -1.55) (size 1.5 0.9) (layers F.Cu F.Paste F.Mask))
)
